<?xml version="1.0" encoding="utf-8"?>
<!DOCTYPE eagle SYSTEM "eagle.dtd">
<eagle version="7.5.0">
<drawing>
<settings>
<setting alwaysvectorfont="no"/>
<setting verticaltext="up"/>
</settings>
<grid distance="0.1" unitdist="inch" unit="inch" style="lines" multiple="1" display="no" altdistance="0.01" altunitdist="inch" altunit="inch"/>
<layers>
<layer number="1" name="Top" color="4" fill="1" visible="yes" active="yes"/>
<layer number="2" name="Route2" color="1" fill="3" visible="no" active="yes"/>
<layer number="3" name="Route3" color="4" fill="3" visible="no" active="yes"/>
<layer number="4" name="Route4" color="1" fill="4" visible="no" active="yes"/>
<layer number="5" name="Route5" color="4" fill="4" visible="no" active="yes"/>
<layer number="6" name="Route6" color="1" fill="8" visible="no" active="yes"/>
<layer number="7" name="Route7" color="4" fill="8" visible="no" active="yes"/>
<layer number="8" name="Route8" color="1" fill="2" visible="no" active="yes"/>
<layer number="9" name="Route9" color="4" fill="2" visible="no" active="yes"/>
<layer number="10" name="Route10" color="1" fill="7" visible="no" active="yes"/>
<layer number="11" name="Route11" color="4" fill="7" visible="no" active="yes"/>
<layer number="12" name="Route12" color="1" fill="5" visible="no" active="yes"/>
<layer number="13" name="Route13" color="4" fill="5" visible="no" active="yes"/>
<layer number="14" name="Route14" color="1" fill="6" visible="no" active="yes"/>
<layer number="15" name="Route15" color="4" fill="6" visible="no" active="yes"/>
<layer number="16" name="Bottom" color="1" fill="1" visible="yes" active="yes"/>
<layer number="17" name="Pads" color="2" fill="1" visible="yes" active="yes"/>
<layer number="18" name="Vias" color="2" fill="1" visible="yes" active="yes"/>
<layer number="19" name="Unrouted" color="6" fill="1" visible="yes" active="yes"/>
<layer number="20" name="Dimension" color="15" fill="1" visible="yes" active="yes"/>
<layer number="21" name="tPlace" color="7" fill="1" visible="yes" active="yes"/>
<layer number="22" name="bPlace" color="7" fill="1" visible="yes" active="yes"/>
<layer number="23" name="tOrigins" color="15" fill="1" visible="yes" active="yes"/>
<layer number="24" name="bOrigins" color="15" fill="1" visible="yes" active="yes"/>
<layer number="25" name="tNames" color="7" fill="1" visible="yes" active="yes"/>
<layer number="26" name="bNames" color="7" fill="1" visible="yes" active="yes"/>
<layer number="27" name="tValues" color="7" fill="1" visible="yes" active="yes"/>
<layer number="28" name="bValues" color="7" fill="1" visible="yes" active="yes"/>
<layer number="29" name="tStop" color="7" fill="3" visible="no" active="yes"/>
<layer number="30" name="bStop" color="7" fill="6" visible="no" active="yes"/>
<layer number="31" name="tCream" color="7" fill="4" visible="no" active="yes"/>
<layer number="32" name="bCream" color="7" fill="5" visible="no" active="yes"/>
<layer number="33" name="tFinish" color="6" fill="3" visible="no" active="yes"/>
<layer number="34" name="bFinish" color="6" fill="6" visible="no" active="yes"/>
<layer number="35" name="tGlue" color="7" fill="4" visible="no" active="yes"/>
<layer number="36" name="bGlue" color="7" fill="5" visible="no" active="yes"/>
<layer number="37" name="tTest" color="7" fill="1" visible="no" active="yes"/>
<layer number="38" name="bTest" color="7" fill="1" visible="no" active="yes"/>
<layer number="39" name="tKeepout" color="4" fill="11" visible="yes" active="yes"/>
<layer number="40" name="bKeepout" color="1" fill="11" visible="yes" active="yes"/>
<layer number="41" name="tRestrict" color="4" fill="10" visible="yes" active="yes"/>
<layer number="42" name="bRestrict" color="1" fill="10" visible="yes" active="yes"/>
<layer number="43" name="vRestrict" color="2" fill="10" visible="yes" active="yes"/>
<layer number="44" name="Drills" color="7" fill="1" visible="no" active="yes"/>
<layer number="45" name="Holes" color="7" fill="1" visible="no" active="yes"/>
<layer number="46" name="Milling" color="3" fill="1" visible="no" active="yes"/>
<layer number="47" name="Measures" color="7" fill="1" visible="no" active="yes"/>
<layer number="48" name="Document" color="7" fill="1" visible="yes" active="yes"/>
<layer number="49" name="Reference" color="7" fill="1" visible="yes" active="yes"/>
<layer number="50" name="dxf" color="7" fill="1" visible="yes" active="yes"/>
<layer number="51" name="tDocu" color="7" fill="1" visible="yes" active="yes"/>
<layer number="52" name="bDocu" color="7" fill="1" visible="yes" active="yes"/>
<layer number="53" name="tPadExt" color="7" fill="1" visible="no" active="no"/>
<layer number="54" name="bPadExt" color="1" fill="1" visible="no" active="no"/>
<layer number="56" name="wert" color="7" fill="1" visible="no" active="no"/>
<layer number="90" name="Modules" color="5" fill="1" visible="yes" active="yes"/>
<layer number="91" name="Nets" color="2" fill="1" visible="yes" active="yes"/>
<layer number="92" name="Busses" color="1" fill="1" visible="yes" active="yes"/>
<layer number="93" name="Pins" color="2" fill="1" visible="yes" active="yes"/>
<layer number="94" name="Symbols" color="4" fill="1" visible="yes" active="yes"/>
<layer number="95" name="Names" color="7" fill="1" visible="yes" active="yes"/>
<layer number="96" name="Values" color="7" fill="1" visible="yes" active="yes"/>
<layer number="97" name="Info" color="7" fill="1" visible="yes" active="yes"/>
<layer number="98" name="Guide" color="6" fill="1" visible="yes" active="yes"/>
<layer number="100" name="Mechanical" color="7" fill="1" visible="no" active="no"/>
<layer number="101" name="Gehäuse" color="7" fill="1" visible="no" active="no"/>
<layer number="102" name="Mittellin" color="7" fill="1" visible="no" active="no"/>
<layer number="104" name="Name" color="7" fill="1" visible="yes" active="yes"/>
<layer number="105" name="Beschreib" color="9" fill="1" visible="no" active="no"/>
<layer number="106" name="BGA-Top" color="4" fill="1" visible="no" active="no"/>
<layer number="107" name="BD-Top" color="5" fill="1" visible="no" active="no"/>
<layer number="151" name="HeatSink" color="14" fill="1" visible="yes" active="yes"/>
<layer number="200" name="200bmp" color="1" fill="10" visible="no" active="no"/>
<layer number="250" name="Descript" color="3" fill="1" visible="no" active="no"/>
<layer number="251" name="SMDround" color="12" fill="11" visible="no" active="no"/>
<layer number="254" name="OrgLBR" color="13" fill="1" visible="yes" active="yes"/>
</layers>
<library>
<packages>
<package name="TSSOP-20">
<wire x1="-3.1646" y1="-2.2828" x2="3.1646" y2="-2.2828" width="0.1524" layer="21"/>
<wire x1="3.1646" y1="2.2828" x2="3.1646" y2="-2.2828" width="0.1524" layer="21"/>
<wire x1="3.1646" y1="2.2828" x2="-3.1646" y2="2.2828" width="0.1524" layer="21"/>
<wire x1="-3.1646" y1="-2.2828" x2="-3.1646" y2="2.2828" width="0.1524" layer="21"/>
<wire x1="-2.936" y1="-2.0542" x2="2.936" y2="-2.0542" width="0.0508" layer="21"/>
<wire x1="2.936" y1="2.0542" x2="2.936" y2="-2.0542" width="0.0508" layer="21"/>
<wire x1="2.936" y1="2.0542" x2="-2.936" y2="2.0542" width="0.0508" layer="21"/>
<wire x1="-2.936" y1="-2.0542" x2="-2.936" y2="2.0542" width="0.0508" layer="21"/>
<circle x="-2.2756" y="-1.2192" radius="0.4572" width="0.1524" layer="21"/>
<smd name="1" x="-2.925" y="-2.9178" dx="0.3048" dy="0.9906" layer="1"/>
<smd name="2" x="-2.275" y="-2.9178" dx="0.3048" dy="0.9906" layer="1"/>
<smd name="3" x="-1.625" y="-2.9178" dx="0.3048" dy="0.9906" layer="1"/>
<smd name="4" x="-0.975" y="-2.9178" dx="0.3048" dy="0.9906" layer="1"/>
<smd name="5" x="-0.325" y="-2.9178" dx="0.3048" dy="0.9906" layer="1"/>
<smd name="6" x="0.325" y="-2.9178" dx="0.3048" dy="0.9906" layer="1"/>
<smd name="7" x="0.975" y="-2.9178" dx="0.3048" dy="0.9906" layer="1"/>
<smd name="8" x="1.625" y="-2.9178" dx="0.3048" dy="0.9906" layer="1"/>
<smd name="9" x="2.275" y="-2.9178" dx="0.3048" dy="0.9906" layer="1"/>
<smd name="10" x="2.925" y="-2.9178" dx="0.3048" dy="0.9906" layer="1"/>
<smd name="11" x="2.925" y="2.9178" dx="0.3048" dy="0.9906" layer="1"/>
<smd name="12" x="2.275" y="2.9178" dx="0.3048" dy="0.9906" layer="1"/>
<smd name="13" x="1.625" y="2.9178" dx="0.3048" dy="0.9906" layer="1"/>
<smd name="14" x="0.975" y="2.9178" dx="0.3048" dy="0.9906" layer="1"/>
<smd name="15" x="0.325" y="2.9178" dx="0.3048" dy="0.9906" layer="1"/>
<smd name="16" x="-0.325" y="2.9178" dx="0.3048" dy="0.9906" layer="1"/>
<smd name="17" x="-0.975" y="2.9178" dx="0.3048" dy="0.9906" layer="1"/>
<smd name="18" x="-1.625" y="2.9178" dx="0.3048" dy="0.9906" layer="1"/>
<smd name="19" x="-2.275" y="2.9178" dx="0.3048" dy="0.9906" layer="1"/>
<smd name="20" x="-2.925" y="2.9178" dx="0.3048" dy="0.9906" layer="1"/>
<text x="-3.5456" y="-2.0828" size="1.016" layer="25" ratio="10" rot="R90">&gt;NAME</text>
<text x="4.5362" y="-2.0828" size="1.016" layer="27" ratio="10" rot="R90">&gt;VALUE</text>
<rectangle x1="-3.0266" y1="-3.121" x2="-2.8234" y2="-2.2828" layer="51"/>
<rectangle x1="-2.3766" y1="-3.121" x2="-2.1734" y2="-2.2828" layer="51"/>
<rectangle x1="-1.7266" y1="-3.121" x2="-1.5234" y2="-2.2828" layer="51"/>
<rectangle x1="-1.0766" y1="-3.121" x2="-0.8734" y2="-2.2828" layer="51"/>
<rectangle x1="-0.4266" y1="-3.121" x2="-0.2234" y2="-2.2828" layer="51"/>
<rectangle x1="0.2234" y1="-3.121" x2="0.4266" y2="-2.2828" layer="51"/>
<rectangle x1="0.8734" y1="-3.121" x2="1.0766" y2="-2.2828" layer="51"/>
<rectangle x1="1.5234" y1="-3.121" x2="1.7266" y2="-2.2828" layer="51"/>
<rectangle x1="2.1734" y1="-3.121" x2="2.3766" y2="-2.2828" layer="51"/>
<rectangle x1="2.8234" y1="-3.121" x2="3.0266" y2="-2.2828" layer="51"/>
<rectangle x1="2.8234" y1="2.2828" x2="3.0266" y2="3.121" layer="51"/>
<rectangle x1="2.1734" y1="2.2828" x2="2.3766" y2="3.121" layer="51"/>
<rectangle x1="1.5234" y1="2.2828" x2="1.7266" y2="3.121" layer="51"/>
<rectangle x1="0.8734" y1="2.2828" x2="1.0766" y2="3.121" layer="51"/>
<rectangle x1="0.2234" y1="2.2828" x2="0.4266" y2="3.121" layer="51"/>
<rectangle x1="-0.4266" y1="2.2828" x2="-0.2234" y2="3.121" layer="51"/>
<rectangle x1="-1.0766" y1="2.2828" x2="-0.8734" y2="3.121" layer="51"/>
<rectangle x1="-1.7266" y1="2.2828" x2="-1.5234" y2="3.121" layer="51"/>
<rectangle x1="-2.3766" y1="2.2828" x2="-2.1734" y2="3.121" layer="51"/>
<rectangle x1="-3.0266" y1="2.2828" x2="-2.8234" y2="3.121" layer="51"/>
</package>
</packages>
<symbols>
<symbol name="STM32F070-20">
<pin name="BT0" x="-12.7" y="12.7" length="middle" direction="in"/>
<pin name="XI" x="-12.7" y="10.16" length="middle"/>
<pin name="XO" x="-12.7" y="7.62" length="middle"/>
<pin name="!RST" x="-12.7" y="5.08" length="middle" direction="in"/>
<pin name="VDDA" x="-12.7" y="2.54" length="middle" direction="pwr"/>
<pin name="PA0" x="-12.7" y="0" length="middle"/>
<pin name="PA1" x="-12.7" y="-2.54" length="middle"/>
<pin name="PA2" x="-12.7" y="-5.08" length="middle"/>
<pin name="PA3" x="-12.7" y="-7.62" length="middle"/>
<pin name="PA4" x="-12.7" y="-10.16" length="middle"/>
<pin name="PA5" x="12.7" y="-10.16" length="middle" rot="R180"/>
<pin name="PA6" x="12.7" y="-7.62" length="middle" rot="R180"/>
<pin name="PA7" x="12.7" y="-5.08" length="middle" rot="R180"/>
<pin name="PB1" x="12.7" y="-2.54" length="middle" rot="R180"/>
<pin name="VSS" x="12.7" y="0" length="middle" direction="pwr" rot="R180"/>
<pin name="VDD" x="12.7" y="2.54" length="middle" direction="pwr" rot="R180"/>
<pin name="PA11" x="12.7" y="5.08" length="middle" rot="R180"/>
<pin name="PA12" x="12.7" y="7.62" length="middle" rot="R180"/>
<pin name="PA13" x="12.7" y="10.16" length="middle" rot="R180"/>
<pin name="PA14" x="12.7" y="12.7" length="middle" rot="R180"/>
<wire x1="-7.62" y1="15.24" x2="7.62" y2="15.24" width="0.254" layer="94"/>
<wire x1="7.62" y1="15.24" x2="7.62" y2="-12.7" width="0.254" layer="94"/>
<wire x1="7.62" y1="-12.7" x2="-7.62" y2="-12.7" width="0.254" layer="94"/>
<wire x1="-7.62" y1="-12.7" x2="-7.62" y2="15.24" width="0.254" layer="94"/>
</symbol>
</symbols>
<devicesets>
<deviceset name="STM32F070">
<gates>
<gate name="G$1" symbol="STM32F070-20" x="0" y="0"/>
</gates>
<devices>
<device name="" package="TSSOP-20">
<connects>
<connect gate="G$1" pin="!RST" pad="4"/>
<connect gate="G$1" pin="BT0" pad="1"/>
<connect gate="G$1" pin="PA0" pad="6"/>
<connect gate="G$1" pin="PA1" pad="7"/>
<connect gate="G$1" pin="PA11" pad="17"/>
<connect gate="G$1" pin="PA12" pad="18"/>
<connect gate="G$1" pin="PA13" pad="19"/>
<connect gate="G$1" pin="PA14" pad="20"/>
<connect gate="G$1" pin="PA2" pad="8"/>
<connect gate="G$1" pin="PA3" pad="9"/>
<connect gate="G$1" pin="PA4" pad="10"/>
<connect gate="G$1" pin="PA5" pad="11"/>
<connect gate="G$1" pin="PA6" pad="12"/>
<connect gate="G$1" pin="PA7" pad="13"/>
<connect gate="G$1" pin="PB1" pad="14"/>
<connect gate="G$1" pin="VDD" pad="16"/>
<connect gate="G$1" pin="VDDA" pad="5"/>
<connect gate="G$1" pin="VSS" pad="15"/>
<connect gate="G$1" pin="XI" pad="2"/>
<connect gate="G$1" pin="XO" pad="3"/>
</connects>
<technologies>
<technology name=""/>
</technologies>
</device>
</devices>
</deviceset>
</devicesets>
</library>
</drawing>
</eagle>
