



<!DOCTYPE html>
<html lang="en" class=" is-copy-enabled is-u2f-enabled">
  <head prefix="og: http://ogp.me/ns# fb: http://ogp.me/ns/fb# object: http://ogp.me/ns/object# article: http://ogp.me/ns/article# profile: http://ogp.me/ns/profile#">
    <meta charset='utf-8'>

    <link crossorigin="anonymous" href="https://assets-cdn.github.com/assets/frameworks-536bcdee57776d99649d118d29a291c9d7b41d101696162d6456c87b07314253.css" integrity="sha256-U2vN7ld3bZlknRGNKaKRyde0HRAWlhYtZFbIewcxQlM=" media="all" rel="stylesheet" />
    <link crossorigin="anonymous" href="https://assets-cdn.github.com/assets/github-a3338d75e5d1eeda32eb6b7dc955bbe6bb8e16d6114babbe365ee6f2935052b3.css" integrity="sha256-ozONdeXR7toy62t9yVW75ruOFtYRS6u+Nl7m8pNQUrM=" media="all" rel="stylesheet" />
    
    
    <link crossorigin="anonymous" href="https://assets-cdn.github.com/assets/site-c4b4365da282e51c06e107368db8502a2ecf82e64094d29d791b797372212de2.css" integrity="sha256-xLQ2XaKC5RwG4Qc2jbhQKi7PguZAlNKdeRt5c3IhLeI=" media="all" rel="stylesheet" />
    

    <link as="script" href="https://assets-cdn.github.com/assets/frameworks-e76ce42ce77c934586f7cacbe24d556dbe6fefdbe8b53a393644b18199f7c291.js" rel="preload" />
    
    <link as="script" href="https://assets-cdn.github.com/assets/github-50830ac5f091fb9af13ff0b84b2d772c0e48630daf17c81d26ed18ef0e3d01a8.js" rel="preload" />

    <meta http-equiv="X-UA-Compatible" content="IE=edge">
    <meta http-equiv="Content-Language" content="en">
    <meta name="viewport" content="width=device-width">
    
    
    <title>EagleLibraries/lattice.lbr at master · moderndevice/EagleLibraries · GitHub</title>
    <link rel="search" type="application/opensearchdescription+xml" href="/opensearch.xml" title="GitHub">
    <link rel="fluid-icon" href="https://github.com/fluidicon.png" title="GitHub">
    <link rel="apple-touch-icon" href="/apple-touch-icon.png">
    <link rel="apple-touch-icon" sizes="57x57" href="/apple-touch-icon-57x57.png">
    <link rel="apple-touch-icon" sizes="60x60" href="/apple-touch-icon-60x60.png">
    <link rel="apple-touch-icon" sizes="72x72" href="/apple-touch-icon-72x72.png">
    <link rel="apple-touch-icon" sizes="76x76" href="/apple-touch-icon-76x76.png">
    <link rel="apple-touch-icon" sizes="114x114" href="/apple-touch-icon-114x114.png">
    <link rel="apple-touch-icon" sizes="120x120" href="/apple-touch-icon-120x120.png">
    <link rel="apple-touch-icon" sizes="144x144" href="/apple-touch-icon-144x144.png">
    <link rel="apple-touch-icon" sizes="152x152" href="/apple-touch-icon-152x152.png">
    <link rel="apple-touch-icon" sizes="180x180" href="/apple-touch-icon-180x180.png">
    <meta property="fb:app_id" content="1401488693436528">

      <meta content="https://avatars1.githubusercontent.com/u/348343?v=3&amp;s=400" name="twitter:image:src" /><meta content="@github" name="twitter:site" /><meta content="summary" name="twitter:card" /><meta content="moderndevice/EagleLibraries" name="twitter:title" /><meta content="EagleLibraries - Eagle Libraries" name="twitter:description" />
      <meta content="https://avatars1.githubusercontent.com/u/348343?v=3&amp;s=400" property="og:image" /><meta content="GitHub" property="og:site_name" /><meta content="object" property="og:type" /><meta content="moderndevice/EagleLibraries" property="og:title" /><meta content="https://github.com/moderndevice/EagleLibraries" property="og:url" /><meta content="EagleLibraries - Eagle Libraries" property="og:description" />
      <meta name="browser-stats-url" content="https://api.github.com/_private/browser/stats">
    <meta name="browser-errors-url" content="https://api.github.com/_private/browser/errors">
    <link rel="assets" href="https://assets-cdn.github.com/">
    
    <meta name="pjax-timeout" content="1000">
    

    <meta name="msapplication-TileImage" content="/windows-tile.png">
    <meta name="msapplication-TileColor" content="#ffffff">
    <meta name="selected-link" value="repo_source" data-pjax-transient>

    <meta name="google-site-verification" content="KT5gs8h0wvaagLKAVWq8bbeNwnZZK1r1XQysX3xurLU">
<meta name="google-site-verification" content="ZzhVyEFwb7w3e0-uOTltm8Jsck2F5StVihD0exw2fsA">
    <meta name="google-analytics" content="UA-3769691-2">

<meta content="collector.githubapp.com" name="octolytics-host" /><meta content="github" name="octolytics-app-id" /><meta content="5602F027:55E7:E0B3669:5743E084" name="octolytics-dimension-request_id" />
<meta content="/&lt;user-name&gt;/&lt;repo-name&gt;/blob/show" data-pjax-transient="true" name="analytics-location" />



  <meta class="js-ga-set" name="dimension1" content="Logged Out">



        <meta name="hostname" content="github.com">
    <meta name="user-login" content="">

        <meta name="expected-hostname" content="github.com">
      <meta name="js-proxy-site-detection-payload" content="YjUwMGMyMWMxNGQ0ZWYxZDYzYjljODQzYTgzNmYxOTA2OGUwMWZmYmRlYTYwZDc4ZDViZjcyOWZmY2E4MTQwNnx7InJlbW90ZV9hZGRyZXNzIjoiODYuMi4yNDAuMzkiLCJyZXF1ZXN0X2lkIjoiNTYwMkYwMjc6NTVFNzpFMEIzNjY5OjU3NDNFMDg0IiwidGltZXN0YW1wIjoxNDY0MDY2MTgwfQ==">


      <link rel="mask-icon" href="https://assets-cdn.github.com/pinned-octocat.svg" color="#4078c0">
      <link rel="icon" type="image/x-icon" href="https://assets-cdn.github.com/favicon.ico">

    <meta name="html-safe-nonce" content="8b6e365ce70f34024ecebd75b6b85df3b3569462">
    <meta content="81919c3ae6995a6d21d5066a77eb70bc01489b0f" name="form-nonce" />

    <meta http-equiv="x-pjax-version" content="80aadbe8137fd02872bf7b29a9760be9">
    

      
  <meta name="description" content="EagleLibraries - Eagle Libraries">
  <meta name="go-import" content="github.com/moderndevice/EagleLibraries git https://github.com/moderndevice/EagleLibraries.git">

  <meta content="348343" name="octolytics-dimension-user_id" /><meta content="moderndevice" name="octolytics-dimension-user_login" /><meta content="9476880" name="octolytics-dimension-repository_id" /><meta content="moderndevice/EagleLibraries" name="octolytics-dimension-repository_nwo" /><meta content="true" name="octolytics-dimension-repository_public" /><meta content="false" name="octolytics-dimension-repository_is_fork" /><meta content="9476880" name="octolytics-dimension-repository_network_root_id" /><meta content="moderndevice/EagleLibraries" name="octolytics-dimension-repository_network_root_nwo" />
  <link href="https://github.com/moderndevice/EagleLibraries/commits/master.atom" rel="alternate" title="Recent Commits to EagleLibraries:master" type="application/atom+xml">


      <link rel="canonical" href="https://github.com/moderndevice/EagleLibraries/blob/master/lattice.lbr" data-pjax-transient>
  </head>


  <body class="logged-out   env-production linux vis-public page-blob">
    <div id="js-pjax-loader-bar" class="pjax-loader-bar"></div>
    <a href="#start-of-content" tabindex="1" class="accessibility-aid js-skip-to-content">Skip to content</a>

    
    
    



          <header class="site-header js-details-container" role="banner">
  <div class="container-responsive">
    <a class="header-logo-invertocat" href="https://github.com/" aria-label="Homepage" data-ga-click="(Logged out) Header, go to homepage, icon:logo-wordmark">
      <svg aria-hidden="true" class="octicon octicon-mark-github" height="32" version="1.1" viewBox="0 0 16 16" width="32"><path d="M8 0C3.58 0 0 3.58 0 8c0 3.54 2.29 6.53 5.47 7.59 0.4 0.07 0.55-0.17 0.55-0.38 0-0.19-0.01-0.82-0.01-1.49-2.01 0.37-2.53-0.49-2.69-0.94-0.09-0.23-0.48-0.94-0.82-1.13-0.28-0.15-0.68-0.52-0.01-0.53 0.63-0.01 1.08 0.58 1.23 0.82 0.72 1.21 1.87 0.87 2.33 0.66 0.07-0.52 0.28-0.87 0.51-1.07-1.78-0.2-3.64-0.89-3.64-3.95 0-0.87 0.31-1.59 0.82-2.15-0.08-0.2-0.36-1.02 0.08-2.12 0 0 0.67-0.21 2.2 0.82 0.64-0.18 1.32-0.27 2-0.27 0.68 0 1.36 0.09 2 0.27 1.53-1.04 2.2-0.82 2.2-0.82 0.44 1.1 0.16 1.92 0.08 2.12 0.51 0.56 0.82 1.27 0.82 2.15 0 3.07-1.87 3.75-3.65 3.95 0.29 0.25 0.54 0.73 0.54 1.48 0 1.07-0.01 1.93-0.01 2.2 0 0.21 0.15 0.46 0.55 0.38C13.71 14.53 16 11.53 16 8 16 3.58 12.42 0 8 0z"></path></svg>
    </a>

    <button class="btn-link right site-header-toggle js-details-target" type="button" aria-label="Toggle navigation">
      <svg aria-hidden="true" class="octicon octicon-three-bars" height="24" version="1.1" viewBox="0 0 12 16" width="18"><path d="M11.41 9H0.59c-0.59 0-0.59-0.41-0.59-1s0-1 0.59-1h10.81c0.59 0 0.59 0.41 0.59 1s0 1-0.59 1z m0-4H0.59c-0.59 0-0.59-0.41-0.59-1s0-1 0.59-1h10.81c0.59 0 0.59 0.41 0.59 1s0 1-0.59 1zM0.59 11h10.81c0.59 0 0.59 0.41 0.59 1s0 1-0.59 1H0.59c-0.59 0-0.59-0.41-0.59-1s0-1 0.59-1z"></path></svg>
    </button>

    <div class="site-header-menu">
      <nav class="site-header-nav site-header-nav-main">
        <a href="/personal" class="js-selected-navigation-item nav-item nav-item-personal" data-ga-click="Header, click, Nav menu - item:personal" data-selected-links="/personal /personal">
          Personal
</a>        <a href="/open-source" class="js-selected-navigation-item nav-item nav-item-opensource" data-ga-click="Header, click, Nav menu - item:opensource" data-selected-links="/open-source /open-source">
          Open source
</a>        <a href="/business" class="js-selected-navigation-item nav-item nav-item-business" data-ga-click="Header, click, Nav menu - item:business" data-selected-links="/business /business/features /business/customers /business">
          Business
</a>        <a href="/explore" class="js-selected-navigation-item nav-item nav-item-explore" data-ga-click="Header, click, Nav menu - item:explore" data-selected-links="/explore /trending /trending/developers /integrations /integrations/feature/code /integrations/feature/collaborate /integrations/feature/ship /explore">
          Explore
</a>      </nav>

      <div class="site-header-actions">
            <a class="btn btn-primary site-header-actions-btn" href="/join?source=header-repo" data-ga-click="(Logged out) Header, clicked Sign up, text:sign-up">Sign up</a>
          <a class="btn site-header-actions-btn mr-2" href="/login?return_to=%2Fmoderndevice%2FEagleLibraries%2Fblob%2Fmaster%2Flattice.lbr" data-ga-click="(Logged out) Header, clicked Sign in, text:sign-in">Sign in</a>
      </div>

        <nav class="site-header-nav site-header-nav-secondary">
          <a class="nav-item" href="/pricing">Pricing</a>
          <a class="nav-item" href="/blog">Blog</a>
          <a class="nav-item" href="https://help.github.com">Support</a>
          <a class="nav-item header-search-link" href="https://github.com/search">Search GitHub</a>
              <div class="header-search scoped-search site-scoped-search js-site-search" role="search">
  <!-- </textarea> --><!-- '"` --><form accept-charset="UTF-8" action="/moderndevice/EagleLibraries/search" class="js-site-search-form" data-scoped-search-url="/moderndevice/EagleLibraries/search" data-unscoped-search-url="/search" method="get"><div style="margin:0;padding:0;display:inline"><input name="utf8" type="hidden" value="&#x2713;" /></div>
    <label class="form-control header-search-wrapper js-chromeless-input-container">
      <div class="header-search-scope">This repository</div>
      <input type="text"
        class="form-control header-search-input js-site-search-focus js-site-search-field is-clearable"
        data-hotkey="s"
        name="q"
        placeholder="Search"
        aria-label="Search this repository"
        data-unscoped-placeholder="Search GitHub"
        data-scoped-placeholder="Search"
        tabindex="1"
        autocapitalize="off">
    </label>
</form></div>

        </nav>
    </div>
  </div>
</header>



    <div id="start-of-content" class="accessibility-aid"></div>

      <div id="js-flash-container">
</div>


    <div role="main" class="main-content">
        <div itemscope itemtype="http://schema.org/SoftwareSourceCode">
    <div id="js-repo-pjax-container" data-pjax-container>
      
<div class="pagehead repohead instapaper_ignore readability-menu experiment-repo-nav">
  <div class="container repohead-details-container">

    

<ul class="pagehead-actions">

  <li>
      <a href="/login?return_to=%2Fmoderndevice%2FEagleLibraries"
    class="btn btn-sm btn-with-count tooltipped tooltipped-n"
    aria-label="You must be signed in to watch a repository" rel="nofollow">
    <svg aria-hidden="true" class="octicon octicon-eye" height="16" version="1.1" viewBox="0 0 16 16" width="16"><path d="M8.06 2C3 2 0 8 0 8s3 6 8.06 6c4.94 0 7.94-6 7.94-6S13 2 8.06 2z m-0.06 10c-2.2 0-4-1.78-4-4 0-2.2 1.8-4 4-4 2.22 0 4 1.8 4 4 0 2.22-1.78 4-4 4z m2-4c0 1.11-0.89 2-2 2s-2-0.89-2-2 0.89-2 2-2 2 0.89 2 2z"></path></svg>
    Watch
  </a>
  <a class="social-count" href="/moderndevice/EagleLibraries/watchers">
    8
  </a>

  </li>

  <li>
      <a href="/login?return_to=%2Fmoderndevice%2FEagleLibraries"
    class="btn btn-sm btn-with-count tooltipped tooltipped-n"
    aria-label="You must be signed in to star a repository" rel="nofollow">
    <svg aria-hidden="true" class="octicon octicon-star" height="16" version="1.1" viewBox="0 0 14 16" width="14"><path d="M14 6l-4.9-0.64L7 1 4.9 5.36 0 6l3.6 3.26L2.67 14l4.33-2.33 4.33 2.33L10.4 9.26 14 6z"></path></svg>
    Star
  </a>

    <a class="social-count js-social-count" href="/moderndevice/EagleLibraries/stargazers">
      16
    </a>

  </li>

  <li>
      <a href="/login?return_to=%2Fmoderndevice%2FEagleLibraries"
        class="btn btn-sm btn-with-count tooltipped tooltipped-n"
        aria-label="You must be signed in to fork a repository" rel="nofollow">
        <svg aria-hidden="true" class="octicon octicon-repo-forked" height="16" version="1.1" viewBox="0 0 10 16" width="10"><path d="M8 1c-1.11 0-2 0.89-2 2 0 0.73 0.41 1.38 1 1.72v1.28L5 8 3 6v-1.28c0.59-0.34 1-0.98 1-1.72 0-1.11-0.89-2-2-2S0 1.89 0 3c0 0.73 0.41 1.38 1 1.72v1.78l3 3v1.78c-0.59 0.34-1 0.98-1 1.72 0 1.11 0.89 2 2 2s2-0.89 2-2c0-0.73-0.41-1.38-1-1.72V9.5l3-3V4.72c0.59-0.34 1-0.98 1-1.72 0-1.11-0.89-2-2-2zM2 4.2c-0.66 0-1.2-0.55-1.2-1.2s0.55-1.2 1.2-1.2 1.2 0.55 1.2 1.2-0.55 1.2-1.2 1.2z m3 10c-0.66 0-1.2-0.55-1.2-1.2s0.55-1.2 1.2-1.2 1.2 0.55 1.2 1.2-0.55 1.2-1.2 1.2z m3-10c-0.66 0-1.2-0.55-1.2-1.2s0.55-1.2 1.2-1.2 1.2 0.55 1.2 1.2-0.55 1.2-1.2 1.2z"></path></svg>
        Fork
      </a>

    <a href="/moderndevice/EagleLibraries/network" class="social-count">
      50
    </a>
  </li>
</ul>

    <h1 class="entry-title public ">
  <svg aria-hidden="true" class="octicon octicon-repo" height="16" version="1.1" viewBox="0 0 12 16" width="12"><path d="M4 9h-1v-1h1v1z m0-3h-1v1h1v-1z m0-2h-1v1h1v-1z m0-2h-1v1h1v-1z m8-1v12c0 0.55-0.45 1-1 1H6v2l-1.5-1.5-1.5 1.5V14H1c-0.55 0-1-0.45-1-1V1C0 0.45 0.45 0 1 0h10c0.55 0 1 0.45 1 1z m-1 10H1v2h2v-1h3v1h5V11z m0-10H2v9h9V1z"></path></svg>
  <span class="author" itemprop="author"><a href="/moderndevice" class="url fn" rel="author">moderndevice</a></span><!--
--><span class="path-divider">/</span><!--
--><strong itemprop="name"><a href="/moderndevice/EagleLibraries" data-pjax="#js-repo-pjax-container">EagleLibraries</a></strong>

</h1>

  </div>
  <div class="container">
    
<nav class="reponav js-repo-nav js-sidenav-container-pjax"
     itemscope
     itemtype="http://schema.org/BreadcrumbList"
     role="navigation"
     data-pjax="#js-repo-pjax-container">

  <span itemscope itemtype="http://schema.org/ListItem" itemprop="itemListElement">
    <a href="/moderndevice/EagleLibraries" aria-selected="true" class="js-selected-navigation-item selected reponav-item" data-hotkey="g c" data-selected-links="repo_source repo_downloads repo_commits repo_releases repo_tags repo_branches /moderndevice/EagleLibraries" itemprop="url">
      <svg aria-hidden="true" class="octicon octicon-code" height="16" version="1.1" viewBox="0 0 14 16" width="14"><path d="M9.5 3l-1.5 1.5 3.5 3.5L8 11.5l1.5 1.5 4.5-5L9.5 3zM4.5 3L0 8l4.5 5 1.5-1.5L2.5 8l3.5-3.5L4.5 3z"></path></svg>
      <span itemprop="name">Code</span>
      <meta itemprop="position" content="1">
</a>  </span>

    <span itemscope itemtype="http://schema.org/ListItem" itemprop="itemListElement">
      <a href="/moderndevice/EagleLibraries/issues" class="js-selected-navigation-item reponav-item" data-hotkey="g i" data-selected-links="repo_issues repo_labels repo_milestones /moderndevice/EagleLibraries/issues" itemprop="url">
        <svg aria-hidden="true" class="octicon octicon-issue-opened" height="16" version="1.1" viewBox="0 0 14 16" width="14"><path d="M7 2.3c3.14 0 5.7 2.56 5.7 5.7S10.14 13.7 7 13.7 1.3 11.14 1.3 8s2.56-5.7 5.7-5.7m0-1.3C3.14 1 0 4.14 0 8s3.14 7 7 7 7-3.14 7-7S10.86 1 7 1z m1 3H6v5h2V4z m0 6H6v2h2V10z"></path></svg>
        <span itemprop="name">Issues</span>
        <span class="counter">0</span>
        <meta itemprop="position" content="2">
</a>    </span>

  <span itemscope itemtype="http://schema.org/ListItem" itemprop="itemListElement">
    <a href="/moderndevice/EagleLibraries/pulls" class="js-selected-navigation-item reponav-item" data-hotkey="g p" data-selected-links="repo_pulls /moderndevice/EagleLibraries/pulls" itemprop="url">
      <svg aria-hidden="true" class="octicon octicon-git-pull-request" height="16" version="1.1" viewBox="0 0 12 16" width="12"><path d="M11 11.28c0-1.73 0-6.28 0-6.28-0.03-0.78-0.34-1.47-0.94-2.06s-1.28-0.91-2.06-0.94c0 0-1.02 0-1 0V0L4 3l3 3V4h1c0.27 0.02 0.48 0.11 0.69 0.31s0.3 0.42 0.31 0.69v6.28c-0.59 0.34-1 0.98-1 1.72 0 1.11 0.89 2 2 2s2-0.89 2-2c0-0.73-0.41-1.38-1-1.72z m-1 2.92c-0.66 0-1.2-0.55-1.2-1.2s0.55-1.2 1.2-1.2 1.2 0.55 1.2 1.2-0.55 1.2-1.2 1.2zM4 3c0-1.11-0.89-2-2-2S0 1.89 0 3c0 0.73 0.41 1.38 1 1.72 0 1.55 0 5.56 0 6.56-0.59 0.34-1 0.98-1 1.72 0 1.11 0.89 2 2 2s2-0.89 2-2c0-0.73-0.41-1.38-1-1.72V4.72c0.59-0.34 1-0.98 1-1.72z m-0.8 10c0 0.66-0.55 1.2-1.2 1.2s-1.2-0.55-1.2-1.2 0.55-1.2 1.2-1.2 1.2 0.55 1.2 1.2z m-1.2-8.8c-0.66 0-1.2-0.55-1.2-1.2s0.55-1.2 1.2-1.2 1.2 0.55 1.2 1.2-0.55 1.2-1.2 1.2z"></path></svg>
      <span itemprop="name">Pull requests</span>
      <span class="counter">0</span>
      <meta itemprop="position" content="3">
</a>  </span>



  <a href="/moderndevice/EagleLibraries/pulse" class="js-selected-navigation-item reponav-item" data-selected-links="pulse /moderndevice/EagleLibraries/pulse">
    <svg aria-hidden="true" class="octicon octicon-pulse" height="16" version="1.1" viewBox="0 0 14 16" width="14"><path d="M11.5 8L8.8 5.4 6.6 8.5 5.5 1.6 2.38 8H0V10h3.6L4.5 8.2l0.9 5.4L9 8.5l1.6 1.5H14V8H11.5z"></path></svg>
    Pulse
</a>
  <a href="/moderndevice/EagleLibraries/graphs" class="js-selected-navigation-item reponav-item" data-selected-links="repo_graphs repo_contributors /moderndevice/EagleLibraries/graphs">
    <svg aria-hidden="true" class="octicon octicon-graph" height="16" version="1.1" viewBox="0 0 16 16" width="16"><path d="M16 14v1H0V0h1v14h15z m-11-1H3V8h2v5z m4 0H7V3h2v10z m4 0H11V6h2v7z"></path></svg>
    Graphs
</a>

</nav>

  </div>
</div>

<div class="container new-discussion-timeline experiment-repo-nav">
  <div class="repository-content">

    

<a href="/moderndevice/EagleLibraries/blob/709a1c6ee8d1fe39070fc33cf4470be646fad680/lattice.lbr" class="hidden js-permalink-shortcut" data-hotkey="y">Permalink</a>

<!-- blob contrib key: blob_contributors:v21:5184934d944d381fe1a56b04c4d60e04 -->

<div class="file-navigation js-zeroclipboard-container">
  
<div class="select-menu branch-select-menu js-menu-container js-select-menu left">
  <button class="btn btn-sm select-menu-button js-menu-target css-truncate" data-hotkey="w"
    title="master"
    type="button" aria-label="Switch branches or tags" tabindex="0" aria-haspopup="true">
    <i>Branch:</i>
    <span class="js-select-button css-truncate-target">master</span>
  </button>

  <div class="select-menu-modal-holder js-menu-content js-navigation-container" data-pjax aria-hidden="true">

    <div class="select-menu-modal">
      <div class="select-menu-header">
        <svg aria-label="Close" class="octicon octicon-x js-menu-close" height="16" role="img" version="1.1" viewBox="0 0 12 16" width="12"><path d="M7.48 8l3.75 3.75-1.48 1.48-3.75-3.75-3.75 3.75-1.48-1.48 3.75-3.75L0.77 4.25l1.48-1.48 3.75 3.75 3.75-3.75 1.48 1.48-3.75 3.75z"></path></svg>
        <span class="select-menu-title">Switch branches/tags</span>
      </div>

      <div class="select-menu-filters">
        <div class="select-menu-text-filter">
          <input type="text" aria-label="Filter branches/tags" id="context-commitish-filter-field" class="form-control js-filterable-field js-navigation-enable" placeholder="Filter branches/tags">
        </div>
        <div class="select-menu-tabs">
          <ul>
            <li class="select-menu-tab">
              <a href="#" data-tab-filter="branches" data-filter-placeholder="Filter branches/tags" class="js-select-menu-tab" role="tab">Branches</a>
            </li>
            <li class="select-menu-tab">
              <a href="#" data-tab-filter="tags" data-filter-placeholder="Find a tag…" class="js-select-menu-tab" role="tab">Tags</a>
            </li>
          </ul>
        </div>
      </div>

      <div class="select-menu-list select-menu-tab-bucket js-select-menu-tab-bucket" data-tab-filter="branches" role="menu">

        <div data-filterable-for="context-commitish-filter-field" data-filterable-type="substring">


            <a class="select-menu-item js-navigation-item js-navigation-open selected"
               href="/moderndevice/EagleLibraries/blob/master/lattice.lbr"
               data-name="master"
               data-skip-pjax="true"
               rel="nofollow">
              <svg aria-hidden="true" class="octicon octicon-check select-menu-item-icon" height="16" version="1.1" viewBox="0 0 12 16" width="12"><path d="M12 5L4 13 0 9l1.5-1.5 2.5 2.5 6.5-6.5 1.5 1.5z"></path></svg>
              <span class="select-menu-item-text css-truncate-target js-select-menu-filter-text" title="master">
                master
              </span>
            </a>
        </div>

          <div class="select-menu-no-results">Nothing to show</div>
      </div>

      <div class="select-menu-list select-menu-tab-bucket js-select-menu-tab-bucket" data-tab-filter="tags">
        <div data-filterable-for="context-commitish-filter-field" data-filterable-type="substring">


        </div>

        <div class="select-menu-no-results">Nothing to show</div>
      </div>

    </div>
  </div>
</div>

  <div class="btn-group right">
    <a href="/moderndevice/EagleLibraries/find/master"
          class="js-pjax-capture-input btn btn-sm"
          data-pjax
          data-hotkey="t">
      Find file
    </a>
    <button aria-label="Copy file path to clipboard" class="js-zeroclipboard btn btn-sm zeroclipboard-button tooltipped tooltipped-s" data-copied-hint="Copied!" type="button">Copy path</button>
  </div>
  <div class="breadcrumb js-zeroclipboard-target">
    <span class="repo-root js-repo-root"><span class="js-path-segment"><a href="/moderndevice/EagleLibraries"><span>EagleLibraries</span></a></span></span><span class="separator">/</span><strong class="final-path">lattice.lbr</strong>
  </div>
</div>


  <div class="commit-tease">
      <span class="right">
        <a class="commit-tease-sha" href="/moderndevice/EagleLibraries/commit/83f36f819ccaa2e936156d7501207b271c3161cb" data-pjax>
          83f36f8
        </a>
        <relative-time datetime="2013-04-16T16:36:29Z">Apr 16, 2013</relative-time>
      </span>
      <div>
        <img alt="@moderndevice" class="avatar" height="20" src="https://avatars2.githubusercontent.com/u/348343?v=3&amp;s=40" width="20" />
        <a href="/moderndevice" class="user-mention" rel="author">moderndevice</a>
          <a href="/moderndevice/EagleLibraries/commit/83f36f819ccaa2e936156d7501207b271c3161cb" class="message" data-pjax="true" title="Adding Paul&#39;s libraries">Adding Paul's libraries</a>
      </div>

    <div class="commit-tease-contributors">
      <button type="button" class="btn-link muted-link contributors-toggle" data-facebox="#blob_contributors_box">
        <strong>1</strong>
         contributor
      </button>
      
    </div>

    <div id="blob_contributors_box" style="display:none">
      <h2 class="facebox-header" data-facebox-id="facebox-header">Users who have contributed to this file</h2>
      <ul class="facebox-user-list" data-facebox-id="facebox-description">
          <li class="facebox-user-list-item">
            <img alt="@moderndevice" height="24" src="https://avatars0.githubusercontent.com/u/348343?v=3&amp;s=48" width="24" />
            <a href="/moderndevice">moderndevice</a>
          </li>
      </ul>
    </div>
  </div>

<div class="file">
  <div class="file-header">
  <div class="file-actions">

    <div class="btn-group">
      <a href="/moderndevice/EagleLibraries/raw/master/lattice.lbr" class="btn btn-sm " id="raw-url">Raw</a>
      <a href="/moderndevice/EagleLibraries/commits/master/lattice.lbr" class="btn btn-sm " rel="nofollow">History</a>
    </div>


        <!-- </textarea> --><!-- '"` --><form accept-charset="UTF-8" action="/moderndevice/EagleLibraries/delete/master/lattice.lbr" class="inline-form" data-form-nonce="81919c3ae6995a6d21d5066a77eb70bc01489b0f" method="post"><div style="margin:0;padding:0;display:inline"><input name="utf8" type="hidden" value="&#x2713;" /><input name="authenticity_token" type="hidden" value="F8fYjp7ZwhP52Y75e56oF9MMB58ukM/6MJFL5N3COqxdMOk2HboBAnZeWrsVz+40YhvzTfmYO0td4vcUoDMbIA==" /></div>
          <button class="btn-octicon btn-octicon-danger tooltipped tooltipped-nw" type="submit"
            aria-label="You must be signed in to make or propose changes" data-disable-with>
            <svg aria-hidden="true" class="octicon octicon-trashcan" height="16" version="1.1" viewBox="0 0 12 16" width="12"><path d="M10 2H8c0-0.55-0.45-1-1-1H4c-0.55 0-1 0.45-1 1H1c-0.55 0-1 0.45-1 1v1c0 0.55 0.45 1 1 1v9c0 0.55 0.45 1 1 1h7c0.55 0 1-0.45 1-1V5c0.55 0 1-0.45 1-1v-1c0-0.55-0.45-1-1-1z m-1 12H2V5h1v8h1V5h1v8h1V5h1v8h1V5h1v9z m1-10H1v-1h9v1z"></path></svg>
          </button>
</form>  </div>

  <div class="file-info">
    1.08 MB
  </div>
</div>

  

  <div itemprop="text" class="blob-wrapper data type-text">
      <div class="image">
          <a href="/moderndevice/EagleLibraries/blob/master/lattice.lbr?raw=true">View Raw</a>
            <p>(Sorry about that, but we can’t show files that are this big right now.)</p>
      </div>
  </div>

</div>

<button type="button" data-facebox="#jump-to-line" data-facebox-class="linejump" data-hotkey="l" class="hidden">Jump to Line</button>
<div id="jump-to-line" style="display:none">
  <!-- </textarea> --><!-- '"` --><form accept-charset="UTF-8" action="" class="js-jump-to-line-form" method="get"><div style="margin:0;padding:0;display:inline"><input name="utf8" type="hidden" value="&#x2713;" /></div>
    <input class="form-control linejump-input js-jump-to-line-field" type="text" placeholder="Jump to line&hellip;" aria-label="Jump to line" autofocus>
    <button type="submit" class="btn">Go</button>
</form></div>

  </div>
  <div class="modal-backdrop"></div>
</div>


    </div>
  </div>

    </div>

        <div class="container site-footer-container">
  <div class="site-footer" role="contentinfo">
    <ul class="site-footer-links right">
        <li><a href="https://status.github.com/" data-ga-click="Footer, go to status, text:status">Status</a></li>
      <li><a href="https://developer.github.com" data-ga-click="Footer, go to api, text:api">API</a></li>
      <li><a href="https://training.github.com" data-ga-click="Footer, go to training, text:training">Training</a></li>
      <li><a href="https://shop.github.com" data-ga-click="Footer, go to shop, text:shop">Shop</a></li>
        <li><a href="https://github.com/blog" data-ga-click="Footer, go to blog, text:blog">Blog</a></li>
        <li><a href="https://github.com/about" data-ga-click="Footer, go to about, text:about">About</a></li>

    </ul>

    <a href="https://github.com" aria-label="Homepage" class="site-footer-mark" title="GitHub">
      <svg aria-hidden="true" class="octicon octicon-mark-github" height="24" version="1.1" viewBox="0 0 16 16" width="24"><path d="M8 0C3.58 0 0 3.58 0 8c0 3.54 2.29 6.53 5.47 7.59 0.4 0.07 0.55-0.17 0.55-0.38 0-0.19-0.01-0.82-0.01-1.49-2.01 0.37-2.53-0.49-2.69-0.94-0.09-0.23-0.48-0.94-0.82-1.13-0.28-0.15-0.68-0.52-0.01-0.53 0.63-0.01 1.08 0.58 1.23 0.82 0.72 1.21 1.87 0.87 2.33 0.66 0.07-0.52 0.28-0.87 0.51-1.07-1.78-0.2-3.64-0.89-3.64-3.95 0-0.87 0.31-1.59 0.82-2.15-0.08-0.2-0.36-1.02 0.08-2.12 0 0 0.67-0.21 2.2 0.82 0.64-0.18 1.32-0.27 2-0.27 0.68 0 1.36 0.09 2 0.27 1.53-1.04 2.2-0.82 2.2-0.82 0.44 1.1 0.16 1.92 0.08 2.12 0.51 0.56 0.82 1.27 0.82 2.15 0 3.07-1.87 3.75-3.65 3.95 0.29 0.25 0.54 0.73 0.54 1.48 0 1.07-0.01 1.93-0.01 2.2 0 0.21 0.15 0.46 0.55 0.38C13.71 14.53 16 11.53 16 8 16 3.58 12.42 0 8 0z"></path></svg>
</a>
    <ul class="site-footer-links">
      <li>&copy; 2016 <span title="0.04253s from github-fe143-cp1-prd.iad.github.net">GitHub</span>, Inc.</li>
        <li><a href="https://github.com/site/terms" data-ga-click="Footer, go to terms, text:terms">Terms</a></li>
        <li><a href="https://github.com/site/privacy" data-ga-click="Footer, go to privacy, text:privacy">Privacy</a></li>
        <li><a href="https://github.com/security" data-ga-click="Footer, go to security, text:security">Security</a></li>
        <li><a href="https://github.com/contact" data-ga-click="Footer, go to contact, text:contact">Contact</a></li>
        <li><a href="https://help.github.com" data-ga-click="Footer, go to help, text:help">Help</a></li>
    </ul>
  </div>
</div>



    

    <div id="ajax-error-message" class="ajax-error-message flash flash-error">
      <svg aria-hidden="true" class="octicon octicon-alert" height="16" version="1.1" viewBox="0 0 16 16" width="16"><path d="M15.72 12.5l-6.85-11.98C8.69 0.21 8.36 0.02 8 0.02s-0.69 0.19-0.87 0.5l-6.85 11.98c-0.18 0.31-0.18 0.69 0 1C0.47 13.81 0.8 14 1.15 14h13.7c0.36 0 0.69-0.19 0.86-0.5S15.89 12.81 15.72 12.5zM9 12H7V10h2V12zM9 9H7V5h2V9z"></path></svg>
      <button type="button" class="flash-close js-flash-close js-ajax-error-dismiss" aria-label="Dismiss error">
        <svg aria-hidden="true" class="octicon octicon-x" height="16" version="1.1" viewBox="0 0 12 16" width="12"><path d="M7.48 8l3.75 3.75-1.48 1.48-3.75-3.75-3.75 3.75-1.48-1.48 3.75-3.75L0.77 4.25l1.48-1.48 3.75 3.75 3.75-3.75 1.48 1.48-3.75 3.75z"></path></svg>
      </button>
      Something went wrong with that request. Please try again.
    </div>


      
      <script crossorigin="anonymous" integrity="sha256-52zkLOd8k0WG98rL4k1Vbb5v79votTo5NkSxgZn3wpE=" src="https://assets-cdn.github.com/assets/frameworks-e76ce42ce77c934586f7cacbe24d556dbe6fefdbe8b53a393644b18199f7c291.js"></script>
      <script async="async" crossorigin="anonymous" integrity="sha256-UIMKxfCR+5rxP/C4Sy13LA5IYw2vF8gdJu0Y7w49Aag=" src="https://assets-cdn.github.com/assets/github-50830ac5f091fb9af13ff0b84b2d772c0e48630daf17c81d26ed18ef0e3d01a8.js"></script>
      
      
      
      
      
      
    <div class="js-stale-session-flash stale-session-flash flash flash-warn flash-banner hidden">
      <svg aria-hidden="true" class="octicon octicon-alert" height="16" version="1.1" viewBox="0 0 16 16" width="16"><path d="M15.72 12.5l-6.85-11.98C8.69 0.21 8.36 0.02 8 0.02s-0.69 0.19-0.87 0.5l-6.85 11.98c-0.18 0.31-0.18 0.69 0 1C0.47 13.81 0.8 14 1.15 14h13.7c0.36 0 0.69-0.19 0.86-0.5S15.89 12.81 15.72 12.5zM9 12H7V10h2V12zM9 9H7V5h2V9z"></path></svg>
      <span class="signed-in-tab-flash">You signed in with another tab or window. <a href="">Reload</a> to refresh your session.</span>
      <span class="signed-out-tab-flash">You signed out in another tab or window. <a href="">Reload</a> to refresh your session.</span>
    </div>
    <div class="facebox" id="facebox" style="display:none;">
  <div class="facebox-popup">
    <div class="facebox-content" role="dialog" aria-labelledby="facebox-header" aria-describedby="facebox-description">
    </div>
    <button type="button" class="facebox-close js-facebox-close" aria-label="Close modal">
      <svg aria-hidden="true" class="octicon octicon-x" height="16" version="1.1" viewBox="0 0 12 16" width="12"><path d="M7.48 8l3.75 3.75-1.48 1.48-3.75-3.75-3.75 3.75-1.48-1.48 3.75-3.75L0.77 4.25l1.48-1.48 3.75 3.75 3.75-3.75 1.48 1.48-3.75 3.75z"></path></svg>
    </button>
  </div>
</div>

  </body>
</html>

