<?xml version="1.0" encoding="utf-8"?>
<!DOCTYPE eagle SYSTEM "eagle.dtd">
<eagle version="7.5.0">
<drawing>
<settings>
<setting alwaysvectorfont="no"/>
<setting verticaltext="up"/>
</settings>
<grid distance="0.1" unitdist="inch" unit="inch" style="lines" multiple="1" display="no" altdistance="0.01" altunitdist="inch" altunit="inch"/>
<layers>
<layer number="1" name="Top" color="4" fill="1" visible="yes" active="yes"/>
<layer number="2" name="Route2" color="1" fill="3" visible="no" active="yes"/>
<layer number="3" name="Route3" color="4" fill="3" visible="no" active="yes"/>
<layer number="14" name="Route14" color="1" fill="6" visible="no" active="yes"/>
<layer number="15" name="Route15" color="4" fill="6" visible="no" active="yes"/>
<layer number="16" name="Bottom" color="1" fill="1" visible="yes" active="yes"/>
<layer number="17" name="Pads" color="2" fill="1" visible="yes" active="yes"/>
<layer number="18" name="Vias" color="2" fill="1" visible="yes" active="yes"/>
<layer number="19" name="Unrouted" color="6" fill="1" visible="yes" active="yes"/>
<layer number="20" name="Dimension" color="15" fill="1" visible="yes" active="yes"/>
<layer number="21" name="tPlace" color="7" fill="1" visible="yes" active="yes"/>
<layer number="22" name="bPlace" color="7" fill="1" visible="yes" active="yes"/>
<layer number="23" name="tOrigins" color="15" fill="1" visible="yes" active="yes"/>
<layer number="24" name="bOrigins" color="15" fill="1" visible="yes" active="yes"/>
<layer number="25" name="tNames" color="7" fill="1" visible="yes" active="yes"/>
<layer number="26" name="bNames" color="7" fill="1" visible="yes" active="yes"/>
<layer number="27" name="tValues" color="7" fill="1" visible="yes" active="yes"/>
<layer number="28" name="bValues" color="7" fill="1" visible="yes" active="yes"/>
<layer number="29" name="tStop" color="7" fill="3" visible="no" active="yes"/>
<layer number="30" name="bStop" color="7" fill="6" visible="no" active="yes"/>
<layer number="31" name="tCream" color="7" fill="4" visible="no" active="yes"/>
<layer number="32" name="bCream" color="7" fill="5" visible="no" active="yes"/>
<layer number="33" name="tFinish" color="6" fill="3" visible="no" active="yes"/>
<layer number="34" name="bFinish" color="6" fill="6" visible="no" active="yes"/>
<layer number="35" name="tGlue" color="7" fill="4" visible="no" active="yes"/>
<layer number="36" name="bGlue" color="7" fill="5" visible="no" active="yes"/>
<layer number="37" name="tTest" color="7" fill="1" visible="no" active="yes"/>
<layer number="38" name="bTest" color="7" fill="1" visible="no" active="yes"/>
<layer number="39" name="tKeepout" color="4" fill="11" visible="yes" active="yes"/>
<layer number="40" name="bKeepout" color="1" fill="11" visible="yes" active="yes"/>
<layer number="41" name="tRestrict" color="4" fill="10" visible="yes" active="yes"/>
<layer number="42" name="bRestrict" color="1" fill="10" visible="yes" active="yes"/>
<layer number="43" name="vRestrict" color="2" fill="10" visible="yes" active="yes"/>
<layer number="44" name="Drills" color="7" fill="1" visible="no" active="yes"/>
<layer number="45" name="Holes" color="7" fill="1" visible="no" active="yes"/>
<layer number="46" name="Milling" color="3" fill="1" visible="no" active="yes"/>
<layer number="47" name="Measures" color="7" fill="1" visible="no" active="yes"/>
<layer number="48" name="Document" color="7" fill="1" visible="yes" active="yes"/>
<layer number="49" name="Reference" color="7" fill="1" visible="yes" active="yes"/>
<layer number="51" name="tDocu" color="7" fill="1" visible="yes" active="yes"/>
<layer number="52" name="bDocu" color="7" fill="1" visible="yes" active="yes"/>
<layer number="90" name="Modules" color="5" fill="1" visible="yes" active="yes"/>
<layer number="91" name="Nets" color="2" fill="1" visible="yes" active="yes"/>
<layer number="92" name="Busses" color="1" fill="1" visible="yes" active="yes"/>
<layer number="93" name="Pins" color="2" fill="1" visible="yes" active="yes"/>
<layer number="94" name="Symbols" color="4" fill="1" visible="yes" active="yes"/>
<layer number="95" name="Names" color="7" fill="1" visible="yes" active="yes"/>
<layer number="96" name="Values" color="7" fill="1" visible="yes" active="yes"/>
<layer number="97" name="Info" color="7" fill="1" visible="yes" active="yes"/>
<layer number="98" name="Guide" color="6" fill="1" visible="yes" active="yes"/>
</layers>
<library>
<packages>
<package name="QFP50P900X900X160-48N">
<smd name="1" x="-4.1656" y="2.7432" dx="0.2794" dy="1.0414" layer="1" rot="R270"/>
<smd name="2" x="-4.1656" y="2.2606" dx="0.2794" dy="1.0414" layer="1" rot="R270"/>
<smd name="3" x="-4.1656" y="1.7526" dx="0.2794" dy="1.0414" layer="1" rot="R270"/>
<smd name="4" x="-4.1656" y="1.2446" dx="0.2794" dy="1.0414" layer="1" rot="R270"/>
<smd name="5" x="-4.1656" y="0.762" dx="0.2794" dy="1.0414" layer="1" rot="R270"/>
<smd name="6" x="-4.1656" y="0.254" dx="0.2794" dy="1.0414" layer="1" rot="R270"/>
<smd name="7" x="-4.1656" y="-0.254" dx="0.2794" dy="1.0414" layer="1" rot="R270"/>
<smd name="8" x="-4.1656" y="-0.762" dx="0.2794" dy="1.0414" layer="1" rot="R270"/>
<smd name="9" x="-4.1656" y="-1.2446" dx="0.2794" dy="1.0414" layer="1" rot="R270"/>
<smd name="10" x="-4.1656" y="-1.7526" dx="0.2794" dy="1.0414" layer="1" rot="R270"/>
<smd name="11" x="-4.1656" y="-2.2606" dx="0.2794" dy="1.0414" layer="1" rot="R270"/>
<smd name="12" x="-4.1656" y="-2.7432" dx="0.2794" dy="1.0414" layer="1" rot="R270"/>
<smd name="13" x="-2.7432" y="-4.1656" dx="0.2794" dy="1.0414" layer="1" rot="R180"/>
<smd name="14" x="-2.2606" y="-4.1656" dx="0.2794" dy="1.0414" layer="1" rot="R180"/>
<smd name="15" x="-1.7526" y="-4.1656" dx="0.2794" dy="1.0414" layer="1" rot="R180"/>
<smd name="16" x="-1.2446" y="-4.1656" dx="0.2794" dy="1.0414" layer="1" rot="R180"/>
<smd name="17" x="-0.762" y="-4.1656" dx="0.2794" dy="1.0414" layer="1" rot="R180"/>
<smd name="18" x="-0.254" y="-4.1656" dx="0.2794" dy="1.0414" layer="1" rot="R180"/>
<smd name="19" x="0.254" y="-4.1656" dx="0.2794" dy="1.0414" layer="1" rot="R180"/>
<smd name="20" x="0.762" y="-4.1656" dx="0.2794" dy="1.0414" layer="1" rot="R180"/>
<smd name="21" x="1.2446" y="-4.1656" dx="0.2794" dy="1.0414" layer="1" rot="R180"/>
<smd name="22" x="1.7526" y="-4.1656" dx="0.2794" dy="1.0414" layer="1" rot="R180"/>
<smd name="23" x="2.2606" y="-4.1656" dx="0.2794" dy="1.0414" layer="1" rot="R180"/>
<smd name="24" x="2.7432" y="-4.1656" dx="0.2794" dy="1.0414" layer="1" rot="R180"/>
<smd name="25" x="4.1656" y="-2.7432" dx="0.2794" dy="1.0414" layer="1" rot="R270"/>
<smd name="26" x="4.1656" y="-2.2606" dx="0.2794" dy="1.0414" layer="1" rot="R270"/>
<smd name="27" x="4.1656" y="-1.7526" dx="0.2794" dy="1.0414" layer="1" rot="R270"/>
<smd name="28" x="4.1656" y="-1.2446" dx="0.2794" dy="1.0414" layer="1" rot="R270"/>
<smd name="29" x="4.1656" y="-0.762" dx="0.2794" dy="1.0414" layer="1" rot="R270"/>
<smd name="30" x="4.1656" y="-0.254" dx="0.2794" dy="1.0414" layer="1" rot="R270"/>
<smd name="31" x="4.1656" y="0.254" dx="0.2794" dy="1.0414" layer="1" rot="R270"/>
<smd name="32" x="4.1656" y="0.762" dx="0.2794" dy="1.0414" layer="1" rot="R270"/>
<smd name="33" x="4.1656" y="1.2446" dx="0.2794" dy="1.0414" layer="1" rot="R270"/>
<smd name="34" x="4.1656" y="1.7526" dx="0.2794" dy="1.0414" layer="1" rot="R270"/>
<smd name="35" x="4.1656" y="2.2606" dx="0.2794" dy="1.0414" layer="1" rot="R270"/>
<smd name="36" x="4.1656" y="2.7432" dx="0.2794" dy="1.0414" layer="1" rot="R270"/>
<smd name="37" x="2.7432" y="4.1656" dx="0.2794" dy="1.0414" layer="1" rot="R180"/>
<smd name="38" x="2.2606" y="4.1656" dx="0.2794" dy="1.0414" layer="1" rot="R180"/>
<smd name="39" x="1.7526" y="4.1656" dx="0.2794" dy="1.0414" layer="1" rot="R180"/>
<smd name="40" x="1.2446" y="4.1656" dx="0.2794" dy="1.0414" layer="1" rot="R180"/>
<smd name="41" x="0.762" y="4.1656" dx="0.2794" dy="1.0414" layer="1" rot="R180"/>
<smd name="42" x="0.254" y="4.1656" dx="0.2794" dy="1.0414" layer="1" rot="R180"/>
<smd name="43" x="-0.254" y="4.1656" dx="0.2794" dy="1.0414" layer="1" rot="R180"/>
<smd name="44" x="-0.762" y="4.1656" dx="0.2794" dy="1.0414" layer="1" rot="R180"/>
<smd name="45" x="-1.2446" y="4.1656" dx="0.2794" dy="1.0414" layer="1" rot="R180"/>
<smd name="46" x="-1.7526" y="4.1656" dx="0.2794" dy="1.0414" layer="1" rot="R180"/>
<smd name="47" x="-2.2606" y="4.1656" dx="0.2794" dy="1.0414" layer="1" rot="R180"/>
<smd name="48" x="-2.7432" y="4.1656" dx="0.2794" dy="1.0414" layer="1" rot="R180"/>
<wire x1="-5.207" y1="-1.5494" x2="-5.207" y2="-1.9304" width="0.1524" layer="49"/>
<wire x1="-5.207" y1="-1.9304" x2="-4.953" y2="-1.9304" width="0.1524" layer="49"/>
<wire x1="-4.953" y1="-1.9304" x2="-4.953" y2="-1.5494" width="0.1524" layer="49"/>
<wire x1="0.5588" y1="-4.953" x2="0.5588" y2="-5.207" width="0.1524" layer="49"/>
<wire x1="0.5588" y1="-5.207" x2="0.9398" y2="-5.207" width="0.1524" layer="49"/>
<wire x1="0.9398" y1="-5.207" x2="0.9398" y2="-4.953" width="0.1524" layer="49"/>
<wire x1="5.207" y1="-0.0508" x2="5.207" y2="-0.4318" width="0.1524" layer="49"/>
<wire x1="5.207" y1="-0.4318" x2="4.953" y2="-0.4318" width="0.1524" layer="49"/>
<wire x1="4.953" y1="-0.4318" x2="4.953" y2="-0.0508" width="0.1524" layer="49"/>
<wire x1="1.0668" y1="4.953" x2="1.0668" y2="5.207" width="0.1524" layer="49"/>
<wire x1="1.0668" y1="5.207" x2="1.4478" y2="5.207" width="0.1524" layer="49"/>
<wire x1="1.4478" y1="5.207" x2="1.4478" y2="4.953" width="0.1524" layer="49"/>
<wire x1="4.8006" y1="-4.8006" x2="-4.8006" y2="-4.8006" width="0.1524" layer="39"/>
<wire x1="-4.8006" y1="-4.8006" x2="-4.8006" y2="4.8006" width="0.1524" layer="39"/>
<wire x1="-4.8006" y1="4.8006" x2="4.8006" y2="4.8006" width="0.1524" layer="39"/>
<wire x1="4.8006" y1="4.8006" x2="4.8006" y2="-4.8006" width="0.1524" layer="39"/>
<wire x1="3.175" y1="-3.5052" x2="3.5052" y2="-3.5052" width="0.1524" layer="21"/>
<wire x1="3.5052" y1="3.175" x2="3.5052" y2="3.5052" width="0.1524" layer="21"/>
<wire x1="-3.175" y1="3.5052" x2="-3.5052" y2="3.5052" width="0.1524" layer="21"/>
<wire x1="-3.3274" y1="2.413" x2="-2.413" y2="3.3274" width="0.1524" layer="21"/>
<wire x1="-3.5052" y1="-3.5052" x2="-3.175" y2="-3.5052" width="0.1524" layer="21"/>
<wire x1="3.5052" y1="-3.5052" x2="3.5052" y2="-3.175" width="0.1524" layer="21"/>
<wire x1="3.5052" y1="3.5052" x2="3.175" y2="3.5052" width="0.1524" layer="21"/>
<wire x1="-3.5052" y1="3.5052" x2="-3.5052" y2="3.175" width="0.1524" layer="21"/>
<wire x1="-3.5052" y1="-3.175" x2="-3.5052" y2="-3.5052" width="0.1524" layer="21"/>
<text x="-5.9182" y="2.7432" size="1.27" layer="21" ratio="6" rot="SR0">*</text>
<text x="-5.9182" y="2.7432" size="1.27" layer="21" ratio="6" rot="SR0">*</text>
<wire x1="-2.2352" y1="3.5052" x2="-2.1082" y2="3.5052" width="0.1524" layer="51"/>
<wire x1="-3.5052" y1="2.2352" x2="-3.5052" y2="2.3876" width="0.1524" layer="51"/>
<wire x1="-3.5052" y1="-3.5052" x2="-2.8956" y2="-3.5052" width="0.1524" layer="51"/>
<wire x1="-2.6162" y1="-3.5052" x2="-2.3876" y2="-3.5052" width="0.1524" layer="51"/>
<wire x1="-2.1082" y1="-3.5052" x2="-1.8796" y2="-3.5052" width="0.1524" layer="51"/>
<wire x1="-1.6256" y1="-3.5052" x2="-1.397" y2="-3.5052" width="0.1524" layer="51"/>
<wire x1="-1.1176" y1="-3.5052" x2="-0.889" y2="-3.5052" width="0.1524" layer="51"/>
<wire x1="-0.6096" y1="-3.5052" x2="-0.381" y2="-3.5052" width="0.1524" layer="51"/>
<wire x1="-0.127" y1="-3.5052" x2="0.127" y2="-3.5052" width="0.1524" layer="51"/>
<wire x1="0.381" y1="-3.5052" x2="0.6096" y2="-3.5052" width="0.1524" layer="51"/>
<wire x1="0.889" y1="-3.5052" x2="1.1176" y2="-3.5052" width="0.1524" layer="51"/>
<wire x1="1.397" y1="-3.5052" x2="1.6256" y2="-3.5052" width="0.1524" layer="51"/>
<wire x1="1.8796" y1="-3.5052" x2="2.1082" y2="-3.5052" width="0.1524" layer="51"/>
<wire x1="2.3876" y1="-3.5052" x2="2.6162" y2="-3.5052" width="0.1524" layer="51"/>
<wire x1="2.8956" y1="-3.5052" x2="3.5052" y2="-3.5052" width="0.1524" layer="51"/>
<wire x1="3.5052" y1="-3.5052" x2="3.5052" y2="-2.8956" width="0.1524" layer="51"/>
<wire x1="3.5052" y1="-2.6162" x2="3.5052" y2="-2.3876" width="0.1524" layer="51"/>
<wire x1="3.5052" y1="-2.1082" x2="3.5052" y2="-1.8796" width="0.1524" layer="51"/>
<wire x1="3.5052" y1="-1.6256" x2="3.5052" y2="-1.397" width="0.1524" layer="51"/>
<wire x1="3.5052" y1="-1.1176" x2="3.5052" y2="-0.889" width="0.1524" layer="51"/>
<wire x1="3.5052" y1="-0.6096" x2="3.5052" y2="-0.381" width="0.1524" layer="51"/>
<wire x1="3.5052" y1="-0.127" x2="3.5052" y2="0.127" width="0.1524" layer="51"/>
<wire x1="3.5052" y1="0.381" x2="3.5052" y2="0.6096" width="0.1524" layer="51"/>
<wire x1="3.5052" y1="0.889" x2="3.5052" y2="1.1176" width="0.1524" layer="51"/>
<wire x1="3.5052" y1="1.397" x2="3.5052" y2="1.6256" width="0.1524" layer="51"/>
<wire x1="3.5052" y1="1.8796" x2="3.5052" y2="2.1082" width="0.1524" layer="51"/>
<wire x1="3.5052" y1="2.3876" x2="3.5052" y2="2.6162" width="0.1524" layer="51"/>
<wire x1="3.5052" y1="2.8956" x2="3.5052" y2="3.5052" width="0.1524" layer="51"/>
<wire x1="3.5052" y1="3.5052" x2="2.8956" y2="3.5052" width="0.1524" layer="51"/>
<wire x1="2.6162" y1="3.5052" x2="2.3876" y2="3.5052" width="0.1524" layer="51"/>
<wire x1="2.1082" y1="3.5052" x2="1.8796" y2="3.5052" width="0.1524" layer="51"/>
<wire x1="1.6256" y1="3.5052" x2="1.397" y2="3.5052" width="0.1524" layer="51"/>
<wire x1="1.1176" y1="3.5052" x2="0.889" y2="3.5052" width="0.1524" layer="51"/>
<wire x1="0.6096" y1="3.5052" x2="0.381" y2="3.5052" width="0.1524" layer="51"/>
<wire x1="0.127" y1="3.5052" x2="-0.127" y2="3.5052" width="0.1524" layer="51"/>
<wire x1="-0.381" y1="3.5052" x2="-0.6096" y2="3.5052" width="0.1524" layer="51"/>
<wire x1="-0.889" y1="3.5052" x2="-1.1176" y2="3.5052" width="0.1524" layer="51"/>
<wire x1="-1.397" y1="3.5052" x2="-1.6256" y2="3.5052" width="0.1524" layer="51"/>
<wire x1="-1.8796" y1="3.5052" x2="-2.1082" y2="3.5052" width="0.1524" layer="51"/>
<wire x1="-2.3876" y1="3.5052" x2="-2.6162" y2="3.5052" width="0.1524" layer="51"/>
<wire x1="-2.8956" y1="3.5052" x2="-3.5052" y2="3.5052" width="0.1524" layer="51"/>
<wire x1="-3.5052" y1="3.5052" x2="-3.5052" y2="2.8956" width="0.1524" layer="51"/>
<wire x1="-3.5052" y1="2.6162" x2="-3.5052" y2="2.3876" width="0.1524" layer="51"/>
<wire x1="-3.5052" y1="2.1082" x2="-3.5052" y2="1.8796" width="0.1524" layer="51"/>
<wire x1="-3.5052" y1="1.6256" x2="-3.5052" y2="1.397" width="0.1524" layer="51"/>
<wire x1="-3.5052" y1="1.1176" x2="-3.5052" y2="0.889" width="0.1524" layer="51"/>
<wire x1="-3.5052" y1="0.6096" x2="-3.5052" y2="0.381" width="0.1524" layer="51"/>
<wire x1="-3.5052" y1="0.127" x2="-3.5052" y2="-0.127" width="0.1524" layer="51"/>
<wire x1="-3.5052" y1="-0.381" x2="-3.5052" y2="-0.6096" width="0.1524" layer="51"/>
<wire x1="-3.5052" y1="-0.889" x2="-3.5052" y2="-1.1176" width="0.1524" layer="51"/>
<wire x1="-3.5052" y1="-1.397" x2="-3.5052" y2="-1.6256" width="0.1524" layer="51"/>
<wire x1="-3.5052" y1="-1.8796" x2="-3.5052" y2="-2.1082" width="0.1524" layer="51"/>
<wire x1="-3.5052" y1="-2.3876" x2="-3.5052" y2="-2.6162" width="0.1524" layer="51"/>
<wire x1="-3.5052" y1="-2.8956" x2="-3.5052" y2="-3.5052" width="0.1524" layer="51"/>
<wire x1="-3.5052" y1="2.2352" x2="-2.2352" y2="3.5052" width="0.1524" layer="51"/>
<wire x1="2.6162" y1="3.5052" x2="2.8956" y2="3.5052" width="0.1524" layer="51"/>
<wire x1="2.8956" y1="3.5052" x2="2.8956" y2="4.4958" width="0.1524" layer="51"/>
<wire x1="2.8956" y1="4.4958" x2="2.6162" y2="4.4958" width="0.1524" layer="51"/>
<wire x1="2.6162" y1="4.4958" x2="2.6162" y2="3.5052" width="0.1524" layer="51"/>
<wire x1="2.1082" y1="3.5052" x2="2.3876" y2="3.5052" width="0.1524" layer="51"/>
<wire x1="2.3876" y1="3.5052" x2="2.3876" y2="4.4958" width="0.1524" layer="51"/>
<wire x1="2.3876" y1="4.4958" x2="2.1082" y2="4.4958" width="0.1524" layer="51"/>
<wire x1="2.1082" y1="4.4958" x2="2.1082" y2="3.5052" width="0.1524" layer="51"/>
<wire x1="1.6256" y1="3.5052" x2="1.8796" y2="3.5052" width="0.1524" layer="51"/>
<wire x1="1.8796" y1="3.5052" x2="1.8796" y2="4.4958" width="0.1524" layer="51"/>
<wire x1="1.8796" y1="4.4958" x2="1.6256" y2="4.4958" width="0.1524" layer="51"/>
<wire x1="1.6256" y1="4.4958" x2="1.6256" y2="3.5052" width="0.1524" layer="51"/>
<wire x1="1.1176" y1="3.5052" x2="1.397" y2="3.5052" width="0.1524" layer="51"/>
<wire x1="1.397" y1="3.5052" x2="1.397" y2="4.4958" width="0.1524" layer="51"/>
<wire x1="1.397" y1="4.4958" x2="1.1176" y2="4.4958" width="0.1524" layer="51"/>
<wire x1="1.1176" y1="4.4958" x2="1.1176" y2="3.5052" width="0.1524" layer="51"/>
<wire x1="0.6096" y1="3.5052" x2="0.889" y2="3.5052" width="0.1524" layer="51"/>
<wire x1="0.889" y1="3.5052" x2="0.889" y2="4.4958" width="0.1524" layer="51"/>
<wire x1="0.889" y1="4.4958" x2="0.6096" y2="4.4958" width="0.1524" layer="51"/>
<wire x1="0.6096" y1="4.4958" x2="0.6096" y2="3.5052" width="0.1524" layer="51"/>
<wire x1="0.127" y1="3.5052" x2="0.381" y2="3.5052" width="0.1524" layer="51"/>
<wire x1="0.381" y1="3.5052" x2="0.381" y2="4.4958" width="0.1524" layer="51"/>
<wire x1="0.381" y1="4.4958" x2="0.127" y2="4.4958" width="0.1524" layer="51"/>
<wire x1="0.127" y1="4.4958" x2="0.127" y2="3.5052" width="0.1524" layer="51"/>
<wire x1="-0.381" y1="3.5052" x2="-0.127" y2="3.5052" width="0.1524" layer="51"/>
<wire x1="-0.127" y1="3.5052" x2="-0.127" y2="4.4958" width="0.1524" layer="51"/>
<wire x1="-0.127" y1="4.4958" x2="-0.381" y2="4.4958" width="0.1524" layer="51"/>
<wire x1="-0.381" y1="4.4958" x2="-0.381" y2="3.5052" width="0.1524" layer="51"/>
<wire x1="-0.889" y1="3.5052" x2="-0.6096" y2="3.5052" width="0.1524" layer="51"/>
<wire x1="-0.6096" y1="3.5052" x2="-0.6096" y2="4.4958" width="0.1524" layer="51"/>
<wire x1="-0.6096" y1="4.4958" x2="-0.889" y2="4.4958" width="0.1524" layer="51"/>
<wire x1="-0.889" y1="4.4958" x2="-0.889" y2="3.5052" width="0.1524" layer="51"/>
<wire x1="-1.397" y1="3.5052" x2="-1.1176" y2="3.5052" width="0.1524" layer="51"/>
<wire x1="-1.1176" y1="3.5052" x2="-1.1176" y2="4.4958" width="0.1524" layer="51"/>
<wire x1="-1.1176" y1="4.4958" x2="-1.397" y2="4.4958" width="0.1524" layer="51"/>
<wire x1="-1.397" y1="4.4958" x2="-1.397" y2="3.5052" width="0.1524" layer="51"/>
<wire x1="-1.8796" y1="3.5052" x2="-1.6256" y2="3.5052" width="0.1524" layer="51"/>
<wire x1="-1.6256" y1="3.5052" x2="-1.6256" y2="4.4958" width="0.1524" layer="51"/>
<wire x1="-1.6256" y1="4.4958" x2="-1.8796" y2="4.4958" width="0.1524" layer="51"/>
<wire x1="-1.8796" y1="4.4958" x2="-1.8796" y2="3.5052" width="0.1524" layer="51"/>
<wire x1="-2.3876" y1="3.5052" x2="-2.2352" y2="3.5052" width="0.1524" layer="51"/>
<wire x1="-2.1082" y1="3.5052" x2="-2.1082" y2="4.4958" width="0.1524" layer="51"/>
<wire x1="-2.1082" y1="4.4958" x2="-2.3876" y2="4.4958" width="0.1524" layer="51"/>
<wire x1="-2.3876" y1="4.4958" x2="-2.3876" y2="3.5052" width="0.1524" layer="51"/>
<wire x1="-2.8956" y1="3.5052" x2="-2.6162" y2="3.5052" width="0.1524" layer="51"/>
<wire x1="-2.6162" y1="3.5052" x2="-2.6162" y2="4.4958" width="0.1524" layer="51"/>
<wire x1="-2.6162" y1="4.4958" x2="-2.8956" y2="4.4958" width="0.1524" layer="51"/>
<wire x1="-2.8956" y1="4.4958" x2="-2.8956" y2="3.5052" width="0.1524" layer="51"/>
<wire x1="-3.5052" y1="2.6162" x2="-3.5052" y2="2.8956" width="0.1524" layer="51"/>
<wire x1="-3.5052" y1="2.8956" x2="-4.4958" y2="2.8956" width="0.1524" layer="51"/>
<wire x1="-4.4958" y1="2.8956" x2="-4.4958" y2="2.6162" width="0.1524" layer="51"/>
<wire x1="-4.4958" y1="2.6162" x2="-3.5052" y2="2.6162" width="0.1524" layer="51"/>
<wire x1="-3.5052" y1="2.1082" x2="-3.5052" y2="2.2352" width="0.1524" layer="51"/>
<wire x1="-3.5052" y1="2.3876" x2="-4.4958" y2="2.3876" width="0.1524" layer="51"/>
<wire x1="-4.4958" y1="2.3876" x2="-4.4958" y2="2.1082" width="0.1524" layer="51"/>
<wire x1="-4.4958" y1="2.1082" x2="-3.5052" y2="2.1082" width="0.1524" layer="51"/>
<wire x1="-3.5052" y1="1.6256" x2="-3.5052" y2="1.8796" width="0.1524" layer="51"/>
<wire x1="-3.5052" y1="1.8796" x2="-4.4958" y2="1.8796" width="0.1524" layer="51"/>
<wire x1="-4.4958" y1="1.8796" x2="-4.4958" y2="1.6256" width="0.1524" layer="51"/>
<wire x1="-4.4958" y1="1.6256" x2="-3.5052" y2="1.6256" width="0.1524" layer="51"/>
<wire x1="-3.5052" y1="1.1176" x2="-3.5052" y2="1.397" width="0.1524" layer="51"/>
<wire x1="-3.5052" y1="1.397" x2="-4.4958" y2="1.397" width="0.1524" layer="51"/>
<wire x1="-4.4958" y1="1.397" x2="-4.4958" y2="1.1176" width="0.1524" layer="51"/>
<wire x1="-4.4958" y1="1.1176" x2="-3.5052" y2="1.1176" width="0.1524" layer="51"/>
<wire x1="-3.5052" y1="0.6096" x2="-3.5052" y2="0.889" width="0.1524" layer="51"/>
<wire x1="-3.5052" y1="0.889" x2="-4.4958" y2="0.889" width="0.1524" layer="51"/>
<wire x1="-4.4958" y1="0.889" x2="-4.4958" y2="0.6096" width="0.1524" layer="51"/>
<wire x1="-4.4958" y1="0.6096" x2="-3.5052" y2="0.6096" width="0.1524" layer="51"/>
<wire x1="-3.5052" y1="0.127" x2="-3.5052" y2="0.381" width="0.1524" layer="51"/>
<wire x1="-3.5052" y1="0.381" x2="-4.4958" y2="0.381" width="0.1524" layer="51"/>
<wire x1="-4.4958" y1="0.381" x2="-4.4958" y2="0.127" width="0.1524" layer="51"/>
<wire x1="-4.4958" y1="0.127" x2="-3.5052" y2="0.127" width="0.1524" layer="51"/>
<wire x1="-3.5052" y1="-0.381" x2="-3.5052" y2="-0.127" width="0.1524" layer="51"/>
<wire x1="-3.5052" y1="-0.127" x2="-4.4958" y2="-0.127" width="0.1524" layer="51"/>
<wire x1="-4.4958" y1="-0.127" x2="-4.4958" y2="-0.381" width="0.1524" layer="51"/>
<wire x1="-4.4958" y1="-0.381" x2="-3.5052" y2="-0.381" width="0.1524" layer="51"/>
<wire x1="-3.5052" y1="-0.889" x2="-3.5052" y2="-0.6096" width="0.1524" layer="51"/>
<wire x1="-3.5052" y1="-0.6096" x2="-4.4958" y2="-0.6096" width="0.1524" layer="51"/>
<wire x1="-4.4958" y1="-0.6096" x2="-4.4958" y2="-0.889" width="0.1524" layer="51"/>
<wire x1="-4.4958" y1="-0.889" x2="-3.5052" y2="-0.889" width="0.1524" layer="51"/>
<wire x1="-3.5052" y1="-1.397" x2="-3.5052" y2="-1.1176" width="0.1524" layer="51"/>
<wire x1="-3.5052" y1="-1.1176" x2="-4.4958" y2="-1.1176" width="0.1524" layer="51"/>
<wire x1="-4.4958" y1="-1.1176" x2="-4.4958" y2="-1.397" width="0.1524" layer="51"/>
<wire x1="-4.4958" y1="-1.397" x2="-3.5052" y2="-1.397" width="0.1524" layer="51"/>
<wire x1="-3.5052" y1="-1.8796" x2="-3.5052" y2="-1.6256" width="0.1524" layer="51"/>
<wire x1="-3.5052" y1="-1.6256" x2="-4.4958" y2="-1.6256" width="0.1524" layer="51"/>
<wire x1="-4.4958" y1="-1.6256" x2="-4.4958" y2="-1.8796" width="0.1524" layer="51"/>
<wire x1="-4.4958" y1="-1.8796" x2="-3.5052" y2="-1.8796" width="0.1524" layer="51"/>
<wire x1="-3.5052" y1="-2.3876" x2="-3.5052" y2="-2.1082" width="0.1524" layer="51"/>
<wire x1="-3.5052" y1="-2.1082" x2="-4.4958" y2="-2.1082" width="0.1524" layer="51"/>
<wire x1="-4.4958" y1="-2.1082" x2="-4.4958" y2="-2.3876" width="0.1524" layer="51"/>
<wire x1="-4.4958" y1="-2.3876" x2="-3.5052" y2="-2.3876" width="0.1524" layer="51"/>
<wire x1="-3.5052" y1="-2.8956" x2="-3.5052" y2="-2.6162" width="0.1524" layer="51"/>
<wire x1="-3.5052" y1="-2.6162" x2="-4.4958" y2="-2.6162" width="0.1524" layer="51"/>
<wire x1="-4.4958" y1="-2.6162" x2="-4.4958" y2="-2.8956" width="0.1524" layer="51"/>
<wire x1="-4.4958" y1="-2.8956" x2="-3.5052" y2="-2.8956" width="0.1524" layer="51"/>
<wire x1="-2.6162" y1="-3.5052" x2="-2.8956" y2="-3.5052" width="0.1524" layer="51"/>
<wire x1="-2.8956" y1="-3.5052" x2="-2.8956" y2="-4.4958" width="0.1524" layer="51"/>
<wire x1="-2.8956" y1="-4.4958" x2="-2.6162" y2="-4.4958" width="0.1524" layer="51"/>
<wire x1="-2.6162" y1="-4.4958" x2="-2.6162" y2="-3.5052" width="0.1524" layer="51"/>
<wire x1="-2.1082" y1="-3.5052" x2="-2.3876" y2="-3.5052" width="0.1524" layer="51"/>
<wire x1="-2.3876" y1="-3.5052" x2="-2.3876" y2="-4.4958" width="0.1524" layer="51"/>
<wire x1="-2.3876" y1="-4.4958" x2="-2.1082" y2="-4.4958" width="0.1524" layer="51"/>
<wire x1="-2.1082" y1="-4.4958" x2="-2.1082" y2="-3.5052" width="0.1524" layer="51"/>
<wire x1="-1.6256" y1="-3.5052" x2="-1.8796" y2="-3.5052" width="0.1524" layer="51"/>
<wire x1="-1.8796" y1="-3.5052" x2="-1.8796" y2="-4.4958" width="0.1524" layer="51"/>
<wire x1="-1.8796" y1="-4.4958" x2="-1.6256" y2="-4.4958" width="0.1524" layer="51"/>
<wire x1="-1.6256" y1="-4.4958" x2="-1.6256" y2="-3.5052" width="0.1524" layer="51"/>
<wire x1="-1.1176" y1="-3.5052" x2="-1.397" y2="-3.5052" width="0.1524" layer="51"/>
<wire x1="-1.397" y1="-3.5052" x2="-1.397" y2="-4.4958" width="0.1524" layer="51"/>
<wire x1="-1.397" y1="-4.4958" x2="-1.1176" y2="-4.4958" width="0.1524" layer="51"/>
<wire x1="-1.1176" y1="-4.4958" x2="-1.1176" y2="-3.5052" width="0.1524" layer="51"/>
<wire x1="-0.6096" y1="-3.5052" x2="-0.889" y2="-3.5052" width="0.1524" layer="51"/>
<wire x1="-0.889" y1="-3.5052" x2="-0.889" y2="-4.4958" width="0.1524" layer="51"/>
<wire x1="-0.889" y1="-4.4958" x2="-0.6096" y2="-4.4958" width="0.1524" layer="51"/>
<wire x1="-0.6096" y1="-4.4958" x2="-0.6096" y2="-3.5052" width="0.1524" layer="51"/>
<wire x1="-0.127" y1="-3.5052" x2="-0.381" y2="-3.5052" width="0.1524" layer="51"/>
<wire x1="-0.381" y1="-3.5052" x2="-0.381" y2="-4.4958" width="0.1524" layer="51"/>
<wire x1="-0.381" y1="-4.4958" x2="-0.127" y2="-4.4958" width="0.1524" layer="51"/>
<wire x1="-0.127" y1="-4.4958" x2="-0.127" y2="-3.5052" width="0.1524" layer="51"/>
<wire x1="0.381" y1="-3.5052" x2="0.127" y2="-3.5052" width="0.1524" layer="51"/>
<wire x1="0.127" y1="-3.5052" x2="0.127" y2="-4.4958" width="0.1524" layer="51"/>
<wire x1="0.127" y1="-4.4958" x2="0.381" y2="-4.4958" width="0.1524" layer="51"/>
<wire x1="0.381" y1="-4.4958" x2="0.381" y2="-3.5052" width="0.1524" layer="51"/>
<wire x1="0.889" y1="-3.5052" x2="0.6096" y2="-3.5052" width="0.1524" layer="51"/>
<wire x1="0.6096" y1="-3.5052" x2="0.6096" y2="-4.4958" width="0.1524" layer="51"/>
<wire x1="0.6096" y1="-4.4958" x2="0.889" y2="-4.4958" width="0.1524" layer="51"/>
<wire x1="0.889" y1="-4.4958" x2="0.889" y2="-3.5052" width="0.1524" layer="51"/>
<wire x1="1.397" y1="-3.5052" x2="1.1176" y2="-3.5052" width="0.1524" layer="51"/>
<wire x1="1.1176" y1="-3.5052" x2="1.1176" y2="-4.4958" width="0.1524" layer="51"/>
<wire x1="1.1176" y1="-4.4958" x2="1.397" y2="-4.4958" width="0.1524" layer="51"/>
<wire x1="1.397" y1="-4.4958" x2="1.397" y2="-3.5052" width="0.1524" layer="51"/>
<wire x1="1.8796" y1="-3.5052" x2="1.6256" y2="-3.5052" width="0.1524" layer="51"/>
<wire x1="1.6256" y1="-3.5052" x2="1.6256" y2="-4.4958" width="0.1524" layer="51"/>
<wire x1="1.6256" y1="-4.4958" x2="1.8796" y2="-4.4958" width="0.1524" layer="51"/>
<wire x1="1.8796" y1="-4.4958" x2="1.8796" y2="-3.5052" width="0.1524" layer="51"/>
<wire x1="2.3876" y1="-3.5052" x2="2.1082" y2="-3.5052" width="0.1524" layer="51"/>
<wire x1="2.1082" y1="-3.5052" x2="2.1082" y2="-4.4958" width="0.1524" layer="51"/>
<wire x1="2.1082" y1="-4.4958" x2="2.3876" y2="-4.4958" width="0.1524" layer="51"/>
<wire x1="2.3876" y1="-4.4958" x2="2.3876" y2="-3.5052" width="0.1524" layer="51"/>
<wire x1="2.8956" y1="-3.5052" x2="2.6162" y2="-3.5052" width="0.1524" layer="51"/>
<wire x1="2.6162" y1="-3.5052" x2="2.6162" y2="-4.4958" width="0.1524" layer="51"/>
<wire x1="2.6162" y1="-4.4958" x2="2.8956" y2="-4.4958" width="0.1524" layer="51"/>
<wire x1="2.8956" y1="-4.4958" x2="2.8956" y2="-3.5052" width="0.1524" layer="51"/>
<wire x1="3.5052" y1="-2.6162" x2="3.5052" y2="-2.8956" width="0.1524" layer="51"/>
<wire x1="3.5052" y1="-2.8956" x2="4.4958" y2="-2.8956" width="0.1524" layer="51"/>
<wire x1="4.4958" y1="-2.8956" x2="4.4958" y2="-2.6162" width="0.1524" layer="51"/>
<wire x1="4.4958" y1="-2.6162" x2="3.5052" y2="-2.6162" width="0.1524" layer="51"/>
<wire x1="3.5052" y1="-2.1082" x2="3.5052" y2="-2.3876" width="0.1524" layer="51"/>
<wire x1="3.5052" y1="-2.3876" x2="4.4958" y2="-2.3876" width="0.1524" layer="51"/>
<wire x1="4.4958" y1="-2.3876" x2="4.4958" y2="-2.1082" width="0.1524" layer="51"/>
<wire x1="4.4958" y1="-2.1082" x2="3.5052" y2="-2.1082" width="0.1524" layer="51"/>
<wire x1="3.5052" y1="-1.6256" x2="3.5052" y2="-1.8796" width="0.1524" layer="51"/>
<wire x1="3.5052" y1="-1.8796" x2="4.4958" y2="-1.8796" width="0.1524" layer="51"/>
<wire x1="4.4958" y1="-1.8796" x2="4.4958" y2="-1.6256" width="0.1524" layer="51"/>
<wire x1="4.4958" y1="-1.6256" x2="3.5052" y2="-1.6256" width="0.1524" layer="51"/>
<wire x1="3.5052" y1="-1.1176" x2="3.5052" y2="-1.397" width="0.1524" layer="51"/>
<wire x1="3.5052" y1="-1.397" x2="4.4958" y2="-1.397" width="0.1524" layer="51"/>
<wire x1="4.4958" y1="-1.397" x2="4.4958" y2="-1.1176" width="0.1524" layer="51"/>
<wire x1="4.4958" y1="-1.1176" x2="3.5052" y2="-1.1176" width="0.1524" layer="51"/>
<wire x1="3.5052" y1="-0.6096" x2="3.5052" y2="-0.889" width="0.1524" layer="51"/>
<wire x1="3.5052" y1="-0.889" x2="4.4958" y2="-0.889" width="0.1524" layer="51"/>
<wire x1="4.4958" y1="-0.889" x2="4.4958" y2="-0.6096" width="0.1524" layer="51"/>
<wire x1="4.4958" y1="-0.6096" x2="3.5052" y2="-0.6096" width="0.1524" layer="51"/>
<wire x1="3.5052" y1="-0.127" x2="3.5052" y2="-0.381" width="0.1524" layer="51"/>
<wire x1="3.5052" y1="-0.381" x2="4.4958" y2="-0.381" width="0.1524" layer="51"/>
<wire x1="4.4958" y1="-0.381" x2="4.4958" y2="-0.127" width="0.1524" layer="51"/>
<wire x1="4.4958" y1="-0.127" x2="3.5052" y2="-0.127" width="0.1524" layer="51"/>
<wire x1="3.5052" y1="0.381" x2="3.5052" y2="0.127" width="0.1524" layer="51"/>
<wire x1="3.5052" y1="0.127" x2="4.4958" y2="0.127" width="0.1524" layer="51"/>
<wire x1="4.4958" y1="0.127" x2="4.4958" y2="0.381" width="0.1524" layer="51"/>
<wire x1="4.4958" y1="0.381" x2="3.5052" y2="0.381" width="0.1524" layer="51"/>
<wire x1="3.5052" y1="0.889" x2="3.5052" y2="0.6096" width="0.1524" layer="51"/>
<wire x1="3.5052" y1="0.6096" x2="4.4958" y2="0.6096" width="0.1524" layer="51"/>
<wire x1="4.4958" y1="0.6096" x2="4.4958" y2="0.889" width="0.1524" layer="51"/>
<wire x1="4.4958" y1="0.889" x2="3.5052" y2="0.889" width="0.1524" layer="51"/>
<wire x1="3.5052" y1="1.397" x2="3.5052" y2="1.1176" width="0.1524" layer="51"/>
<wire x1="3.5052" y1="1.1176" x2="4.4958" y2="1.1176" width="0.1524" layer="51"/>
<wire x1="4.4958" y1="1.1176" x2="4.4958" y2="1.397" width="0.1524" layer="51"/>
<wire x1="4.4958" y1="1.397" x2="3.5052" y2="1.397" width="0.1524" layer="51"/>
<wire x1="3.5052" y1="1.8796" x2="3.5052" y2="1.6256" width="0.1524" layer="51"/>
<wire x1="3.5052" y1="1.6256" x2="4.4958" y2="1.6256" width="0.1524" layer="51"/>
<wire x1="4.4958" y1="1.6256" x2="4.4958" y2="1.8796" width="0.1524" layer="51"/>
<wire x1="4.4958" y1="1.8796" x2="3.5052" y2="1.8796" width="0.1524" layer="51"/>
<wire x1="3.5052" y1="2.3876" x2="3.5052" y2="2.1082" width="0.1524" layer="51"/>
<wire x1="3.5052" y1="2.1082" x2="4.4958" y2="2.1082" width="0.1524" layer="51"/>
<wire x1="4.4958" y1="2.1082" x2="4.4958" y2="2.3876" width="0.1524" layer="51"/>
<wire x1="4.4958" y1="2.3876" x2="3.5052" y2="2.3876" width="0.1524" layer="51"/>
<wire x1="3.5052" y1="2.8956" x2="3.5052" y2="2.6162" width="0.1524" layer="51"/>
<wire x1="3.5052" y1="2.6162" x2="4.4958" y2="2.6162" width="0.1524" layer="51"/>
<wire x1="4.4958" y1="2.6162" x2="4.4958" y2="2.8956" width="0.1524" layer="51"/>
<wire x1="4.4958" y1="2.8956" x2="3.5052" y2="2.8956" width="0.1524" layer="51"/>
<wire x1="-2.1082" y1="-3.5052" x2="2.1082" y2="-3.5052" width="0.1524" layer="51"/>
<wire x1="3.5052" y1="-2.3876" x2="3.5052" y2="2.3876" width="0.1524" layer="51"/>
<wire x1="2.6162" y1="3.5052" x2="-2.6162" y2="3.5052" width="0.1524" layer="51"/>
<wire x1="-3.5052" y1="2.8956" x2="-3.5052" y2="-2.8956" width="0.1524" layer="51"/>
<text x="-5.9182" y="2.7432" size="1.27" layer="51" ratio="6" rot="SR0">*</text>
<text x="-5.9182" y="2.7432" size="1.27" layer="51" ratio="6" rot="SR0">*</text>
<text x="-2.8956" y="5.1816" size="2.0828" layer="25" ratio="10" rot="SR0">&gt;NAME</text>
<text x="-3.5814" y="-7.62" size="2.0828" layer="27" ratio="10" rot="SR0">&gt;VALUE</text>
</package>
<package name="QFP50P1200X1200X160-64N">
<smd name="1" x="-5.715" y="3.7592" dx="0.2794" dy="1.4732" layer="1" rot="R270"/>
<smd name="2" x="-5.715" y="3.2512" dx="0.2794" dy="1.4732" layer="1" rot="R270"/>
<smd name="3" x="-5.715" y="2.7432" dx="0.2794" dy="1.4732" layer="1" rot="R270"/>
<smd name="4" x="-5.715" y="2.2606" dx="0.2794" dy="1.4732" layer="1" rot="R270"/>
<smd name="5" x="-5.715" y="1.7526" dx="0.2794" dy="1.4732" layer="1" rot="R270"/>
<smd name="6" x="-5.715" y="1.2446" dx="0.2794" dy="1.4732" layer="1" rot="R270"/>
<smd name="7" x="-5.715" y="0.762" dx="0.2794" dy="1.4732" layer="1" rot="R270"/>
<smd name="8" x="-5.715" y="0.254" dx="0.2794" dy="1.4732" layer="1" rot="R270"/>
<smd name="9" x="-5.715" y="-0.254" dx="0.2794" dy="1.4732" layer="1" rot="R270"/>
<smd name="10" x="-5.715" y="-0.762" dx="0.2794" dy="1.4732" layer="1" rot="R270"/>
<smd name="11" x="-5.715" y="-1.2446" dx="0.2794" dy="1.4732" layer="1" rot="R270"/>
<smd name="12" x="-5.715" y="-1.7526" dx="0.2794" dy="1.4732" layer="1" rot="R270"/>
<smd name="13" x="-5.715" y="-2.2606" dx="0.2794" dy="1.4732" layer="1" rot="R270"/>
<smd name="14" x="-5.715" y="-2.7432" dx="0.2794" dy="1.4732" layer="1" rot="R270"/>
<smd name="15" x="-5.715" y="-3.2512" dx="0.2794" dy="1.4732" layer="1" rot="R270"/>
<smd name="16" x="-5.715" y="-3.7592" dx="0.2794" dy="1.4732" layer="1" rot="R270"/>
<smd name="17" x="-3.7592" y="-5.715" dx="0.2794" dy="1.4732" layer="1" rot="R180"/>
<smd name="18" x="-3.2512" y="-5.715" dx="0.2794" dy="1.4732" layer="1" rot="R180"/>
<smd name="19" x="-2.7432" y="-5.715" dx="0.2794" dy="1.4732" layer="1" rot="R180"/>
<smd name="20" x="-2.2606" y="-5.715" dx="0.2794" dy="1.4732" layer="1" rot="R180"/>
<smd name="21" x="-1.7526" y="-5.715" dx="0.2794" dy="1.4732" layer="1" rot="R180"/>
<smd name="22" x="-1.2446" y="-5.715" dx="0.2794" dy="1.4732" layer="1" rot="R180"/>
<smd name="23" x="-0.762" y="-5.715" dx="0.2794" dy="1.4732" layer="1" rot="R180"/>
<smd name="24" x="-0.254" y="-5.715" dx="0.2794" dy="1.4732" layer="1" rot="R180"/>
<smd name="25" x="0.254" y="-5.715" dx="0.2794" dy="1.4732" layer="1" rot="R180"/>
<smd name="26" x="0.762" y="-5.715" dx="0.2794" dy="1.4732" layer="1" rot="R180"/>
<smd name="27" x="1.2446" y="-5.715" dx="0.2794" dy="1.4732" layer="1" rot="R180"/>
<smd name="28" x="1.7526" y="-5.715" dx="0.2794" dy="1.4732" layer="1" rot="R180"/>
<smd name="29" x="2.2606" y="-5.715" dx="0.2794" dy="1.4732" layer="1" rot="R180"/>
<smd name="30" x="2.7432" y="-5.715" dx="0.2794" dy="1.4732" layer="1" rot="R180"/>
<smd name="31" x="3.2512" y="-5.715" dx="0.2794" dy="1.4732" layer="1" rot="R180"/>
<smd name="32" x="3.7592" y="-5.715" dx="0.2794" dy="1.4732" layer="1" rot="R180"/>
<smd name="33" x="5.715" y="-3.7592" dx="0.2794" dy="1.4732" layer="1" rot="R270"/>
<smd name="34" x="5.715" y="-3.2512" dx="0.2794" dy="1.4732" layer="1" rot="R270"/>
<smd name="35" x="5.715" y="-2.7432" dx="0.2794" dy="1.4732" layer="1" rot="R270"/>
<smd name="36" x="5.715" y="-2.2606" dx="0.2794" dy="1.4732" layer="1" rot="R270"/>
<smd name="37" x="5.715" y="-1.7526" dx="0.2794" dy="1.4732" layer="1" rot="R270"/>
<smd name="38" x="5.715" y="-1.2446" dx="0.2794" dy="1.4732" layer="1" rot="R270"/>
<smd name="39" x="5.715" y="-0.762" dx="0.2794" dy="1.4732" layer="1" rot="R270"/>
<smd name="40" x="5.715" y="-0.254" dx="0.2794" dy="1.4732" layer="1" rot="R270"/>
<smd name="41" x="5.715" y="0.254" dx="0.2794" dy="1.4732" layer="1" rot="R270"/>
<smd name="42" x="5.715" y="0.762" dx="0.2794" dy="1.4732" layer="1" rot="R270"/>
<smd name="43" x="5.715" y="1.2446" dx="0.2794" dy="1.4732" layer="1" rot="R270"/>
<smd name="44" x="5.715" y="1.7526" dx="0.2794" dy="1.4732" layer="1" rot="R270"/>
<smd name="45" x="5.715" y="2.2606" dx="0.2794" dy="1.4732" layer="1" rot="R270"/>
<smd name="46" x="5.715" y="2.7432" dx="0.2794" dy="1.4732" layer="1" rot="R270"/>
<smd name="47" x="5.715" y="3.2512" dx="0.2794" dy="1.4732" layer="1" rot="R270"/>
<smd name="48" x="5.715" y="3.7592" dx="0.2794" dy="1.4732" layer="1" rot="R270"/>
<smd name="49" x="3.7592" y="5.715" dx="0.2794" dy="1.4732" layer="1" rot="R180"/>
<smd name="50" x="3.2512" y="5.715" dx="0.2794" dy="1.4732" layer="1" rot="R180"/>
<smd name="51" x="2.7432" y="5.715" dx="0.2794" dy="1.4732" layer="1" rot="R180"/>
<smd name="52" x="2.2606" y="5.715" dx="0.2794" dy="1.4732" layer="1" rot="R180"/>
<smd name="53" x="1.7526" y="5.715" dx="0.2794" dy="1.4732" layer="1" rot="R180"/>
<smd name="54" x="1.2446" y="5.715" dx="0.2794" dy="1.4732" layer="1" rot="R180"/>
<smd name="55" x="0.762" y="5.715" dx="0.2794" dy="1.4732" layer="1" rot="R180"/>
<smd name="56" x="0.254" y="5.715" dx="0.2794" dy="1.4732" layer="1" rot="R180"/>
<smd name="57" x="-0.254" y="5.715" dx="0.2794" dy="1.4732" layer="1" rot="R180"/>
<smd name="58" x="-0.762" y="5.715" dx="0.2794" dy="1.4732" layer="1" rot="R180"/>
<smd name="59" x="-1.2446" y="5.715" dx="0.2794" dy="1.4732" layer="1" rot="R180"/>
<smd name="60" x="-1.7526" y="5.715" dx="0.2794" dy="1.4732" layer="1" rot="R180"/>
<smd name="61" x="-2.2606" y="5.715" dx="0.2794" dy="1.4732" layer="1" rot="R180"/>
<smd name="62" x="-2.7432" y="5.715" dx="0.2794" dy="1.4732" layer="1" rot="R180"/>
<smd name="63" x="-3.2512" y="5.715" dx="0.2794" dy="1.4732" layer="1" rot="R180"/>
<smd name="64" x="-3.7592" y="5.715" dx="0.2794" dy="1.4732" layer="1" rot="R180"/>
<wire x1="3.2512" y1="6.8072" x2="3.2512" y2="7.7978" width="0.1524" layer="21"/>
<wire x1="-6.7818" y1="-0.762" x2="-7.7978" y2="-0.762" width="0.1524" layer="21"/>
<wire x1="-2.2352" y1="-6.8072" x2="-2.2352" y2="-7.8232" width="0.1524" layer="21"/>
<wire x1="-1.7526" y1="6.7564" x2="-1.7526" y2="7.7724" width="0.1524" layer="21"/>
<wire x1="2.7686" y1="-6.8072" x2="2.7686" y2="-7.8232" width="0.1524" layer="21"/>
<wire x1="6.7818" y1="-0.254" x2="7.7978" y2="-0.254" width="0.1524" layer="21"/>
<wire x1="-4.2164" y1="5.1054" x2="-5.1054" y2="5.1054" width="0.1524" layer="21"/>
<wire x1="5.1054" y1="4.2164" x2="5.1054" y2="5.1054" width="0.1524" layer="21"/>
<wire x1="4.2164" y1="-5.1054" x2="5.1054" y2="-5.1054" width="0.1524" layer="21"/>
<wire x1="-4.7752" y1="4.1402" x2="-4.1402" y2="4.7752" width="0.1524" layer="21"/>
<wire x1="-5.1054" y1="-5.1054" x2="-4.2164" y2="-5.1054" width="0.1524" layer="21"/>
<wire x1="5.1054" y1="-5.1054" x2="5.1054" y2="-4.2164" width="0.1524" layer="21"/>
<wire x1="5.1054" y1="5.1054" x2="4.2164" y2="5.1054" width="0.1524" layer="21"/>
<wire x1="-5.1054" y1="5.1054" x2="-5.1054" y2="4.2164" width="0.1524" layer="21"/>
<wire x1="-5.1054" y1="-4.2164" x2="-5.1054" y2="-5.1054" width="0.1524" layer="21"/>
<text x="-7.6708" y="3.7338" size="1.27" layer="21" ratio="6" rot="SR0">*</text>
<wire x1="3.6068" y1="5.1054" x2="3.8862" y2="5.1054" width="0" layer="51"/>
<wire x1="3.8862" y1="5.1054" x2="3.8862" y2="6.096" width="0" layer="51"/>
<wire x1="3.8862" y1="6.096" x2="3.6068" y2="6.096" width="0" layer="51"/>
<wire x1="3.6068" y1="6.096" x2="3.6068" y2="5.1054" width="0" layer="51"/>
<wire x1="3.1242" y1="5.1054" x2="3.3782" y2="5.1054" width="0" layer="51"/>
<wire x1="3.3782" y1="5.1054" x2="3.3782" y2="6.096" width="0" layer="51"/>
<wire x1="3.3782" y1="6.096" x2="3.1242" y2="6.096" width="0" layer="51"/>
<wire x1="3.1242" y1="6.096" x2="3.1242" y2="5.1054" width="0" layer="51"/>
<wire x1="2.6162" y1="5.1054" x2="2.8956" y2="5.1054" width="0" layer="51"/>
<wire x1="2.8956" y1="5.1054" x2="2.8956" y2="6.096" width="0" layer="51"/>
<wire x1="2.8956" y1="6.096" x2="2.6162" y2="6.096" width="0" layer="51"/>
<wire x1="2.6162" y1="6.096" x2="2.6162" y2="5.1054" width="0" layer="51"/>
<wire x1="2.1082" y1="5.1054" x2="2.3876" y2="5.1054" width="0" layer="51"/>
<wire x1="2.3876" y1="5.1054" x2="2.3876" y2="6.096" width="0" layer="51"/>
<wire x1="2.3876" y1="6.096" x2="2.1082" y2="6.096" width="0" layer="51"/>
<wire x1="2.1082" y1="6.096" x2="2.1082" y2="5.1054" width="0" layer="51"/>
<wire x1="1.6256" y1="5.1054" x2="1.8796" y2="5.1054" width="0" layer="51"/>
<wire x1="1.8796" y1="5.1054" x2="1.8796" y2="6.096" width="0" layer="51"/>
<wire x1="1.8796" y1="6.096" x2="1.6256" y2="6.096" width="0" layer="51"/>
<wire x1="1.6256" y1="6.096" x2="1.6256" y2="5.1054" width="0" layer="51"/>
<wire x1="1.1176" y1="5.1054" x2="1.397" y2="5.1054" width="0" layer="51"/>
<wire x1="1.397" y1="5.1054" x2="1.397" y2="6.096" width="0" layer="51"/>
<wire x1="1.397" y1="6.096" x2="1.1176" y2="6.096" width="0" layer="51"/>
<wire x1="1.1176" y1="6.096" x2="1.1176" y2="5.1054" width="0" layer="51"/>
<wire x1="0.6096" y1="5.1054" x2="0.889" y2="5.1054" width="0" layer="51"/>
<wire x1="0.889" y1="5.1054" x2="0.889" y2="6.096" width="0" layer="51"/>
<wire x1="0.889" y1="6.096" x2="0.6096" y2="6.096" width="0" layer="51"/>
<wire x1="0.6096" y1="6.096" x2="0.6096" y2="5.1054" width="0" layer="51"/>
<wire x1="0.127" y1="5.1054" x2="0.381" y2="5.1054" width="0" layer="51"/>
<wire x1="0.381" y1="5.1054" x2="0.381" y2="6.096" width="0" layer="51"/>
<wire x1="0.381" y1="6.096" x2="0.127" y2="6.096" width="0" layer="51"/>
<wire x1="0.127" y1="6.096" x2="0.127" y2="5.1054" width="0" layer="51"/>
<wire x1="-0.381" y1="5.1054" x2="-0.127" y2="5.1054" width="0" layer="51"/>
<wire x1="-0.127" y1="5.1054" x2="-0.127" y2="6.096" width="0" layer="51"/>
<wire x1="-0.127" y1="6.096" x2="-0.381" y2="6.096" width="0" layer="51"/>
<wire x1="-0.381" y1="6.096" x2="-0.381" y2="5.1054" width="0" layer="51"/>
<wire x1="-0.889" y1="5.1054" x2="-0.6096" y2="5.1054" width="0" layer="51"/>
<wire x1="-0.6096" y1="5.1054" x2="-0.6096" y2="6.096" width="0" layer="51"/>
<wire x1="-0.6096" y1="6.096" x2="-0.889" y2="6.096" width="0" layer="51"/>
<wire x1="-0.889" y1="6.096" x2="-0.889" y2="5.1054" width="0" layer="51"/>
<wire x1="-1.397" y1="5.1054" x2="-1.1176" y2="5.1054" width="0" layer="51"/>
<wire x1="-1.1176" y1="5.1054" x2="-1.1176" y2="6.096" width="0" layer="51"/>
<wire x1="-1.1176" y1="6.096" x2="-1.397" y2="6.096" width="0" layer="51"/>
<wire x1="-1.397" y1="6.096" x2="-1.397" y2="5.1054" width="0" layer="51"/>
<wire x1="-1.8796" y1="5.1054" x2="-1.6256" y2="5.1054" width="0" layer="51"/>
<wire x1="-1.6256" y1="5.1054" x2="-1.6256" y2="6.096" width="0" layer="51"/>
<wire x1="-1.6256" y1="6.096" x2="-1.8796" y2="6.096" width="0" layer="51"/>
<wire x1="-1.8796" y1="6.096" x2="-1.8796" y2="5.1054" width="0" layer="51"/>
<wire x1="-2.3876" y1="5.1054" x2="-2.1082" y2="5.1054" width="0" layer="51"/>
<wire x1="-2.1082" y1="5.1054" x2="-2.1082" y2="6.096" width="0" layer="51"/>
<wire x1="-2.1082" y1="6.096" x2="-2.3876" y2="6.096" width="0" layer="51"/>
<wire x1="-2.3876" y1="6.096" x2="-2.3876" y2="5.1054" width="0" layer="51"/>
<wire x1="-2.8956" y1="5.1054" x2="-2.6162" y2="5.1054" width="0" layer="51"/>
<wire x1="-2.6162" y1="5.1054" x2="-2.6162" y2="6.096" width="0" layer="51"/>
<wire x1="-2.6162" y1="6.096" x2="-2.8956" y2="6.096" width="0" layer="51"/>
<wire x1="-2.8956" y1="6.096" x2="-2.8956" y2="5.1054" width="0" layer="51"/>
<wire x1="-3.3782" y1="5.1054" x2="-3.1242" y2="5.1054" width="0" layer="51"/>
<wire x1="-3.1242" y1="5.1054" x2="-3.1242" y2="6.096" width="0" layer="51"/>
<wire x1="-3.1242" y1="6.096" x2="-3.3782" y2="6.096" width="0" layer="51"/>
<wire x1="-3.3782" y1="6.096" x2="-3.3782" y2="5.1054" width="0" layer="51"/>
<wire x1="-3.8862" y1="5.1054" x2="-3.8354" y2="5.1054" width="0" layer="51"/>
<wire x1="-3.8354" y1="5.1054" x2="-3.6068" y2="5.1054" width="0" layer="51"/>
<wire x1="-3.6068" y1="5.1054" x2="-3.6068" y2="6.096" width="0" layer="51"/>
<wire x1="-3.6068" y1="6.096" x2="-3.8862" y2="6.096" width="0" layer="51"/>
<wire x1="-3.8862" y1="6.096" x2="-3.8862" y2="5.1054" width="0" layer="51"/>
<wire x1="-5.1054" y1="3.6068" x2="-5.1054" y2="3.8354" width="0" layer="51"/>
<wire x1="-5.1054" y1="3.8354" x2="-5.1054" y2="3.8862" width="0" layer="51"/>
<wire x1="-5.1054" y1="3.8862" x2="-6.096" y2="3.8862" width="0" layer="51"/>
<wire x1="-6.096" y1="3.8862" x2="-6.096" y2="3.6068" width="0" layer="51"/>
<wire x1="-6.096" y1="3.6068" x2="-5.1054" y2="3.6068" width="0" layer="51"/>
<wire x1="-5.1054" y1="3.1242" x2="-5.1054" y2="3.3782" width="0" layer="51"/>
<wire x1="-5.1054" y1="3.3782" x2="-6.096" y2="3.3782" width="0" layer="51"/>
<wire x1="-6.096" y1="3.3782" x2="-6.096" y2="3.1242" width="0" layer="51"/>
<wire x1="-6.096" y1="3.1242" x2="-5.1054" y2="3.1242" width="0" layer="51"/>
<wire x1="-5.1054" y1="2.6162" x2="-5.1054" y2="2.8956" width="0" layer="51"/>
<wire x1="-5.1054" y1="2.8956" x2="-6.096" y2="2.8956" width="0" layer="51"/>
<wire x1="-6.096" y1="2.8956" x2="-6.096" y2="2.6162" width="0" layer="51"/>
<wire x1="-6.096" y1="2.6162" x2="-5.1054" y2="2.6162" width="0" layer="51"/>
<wire x1="-5.1054" y1="2.1082" x2="-5.1054" y2="2.3876" width="0" layer="51"/>
<wire x1="-5.1054" y1="2.3876" x2="-6.096" y2="2.3876" width="0" layer="51"/>
<wire x1="-6.096" y1="2.3876" x2="-6.096" y2="2.1082" width="0" layer="51"/>
<wire x1="-6.096" y1="2.1082" x2="-5.1054" y2="2.1082" width="0" layer="51"/>
<wire x1="-5.1054" y1="1.6256" x2="-5.1054" y2="1.8796" width="0" layer="51"/>
<wire x1="-5.1054" y1="1.8796" x2="-6.096" y2="1.8796" width="0" layer="51"/>
<wire x1="-6.096" y1="1.8796" x2="-6.096" y2="1.6256" width="0" layer="51"/>
<wire x1="-6.096" y1="1.6256" x2="-5.1054" y2="1.6256" width="0" layer="51"/>
<wire x1="-5.1054" y1="1.1176" x2="-5.1054" y2="1.397" width="0" layer="51"/>
<wire x1="-5.1054" y1="1.397" x2="-6.096" y2="1.397" width="0" layer="51"/>
<wire x1="-6.096" y1="1.397" x2="-6.096" y2="1.1176" width="0" layer="51"/>
<wire x1="-6.096" y1="1.1176" x2="-5.1054" y2="1.1176" width="0" layer="51"/>
<wire x1="-5.1054" y1="0.6096" x2="-5.1054" y2="0.889" width="0" layer="51"/>
<wire x1="-5.1054" y1="0.889" x2="-6.096" y2="0.889" width="0" layer="51"/>
<wire x1="-6.096" y1="0.889" x2="-6.096" y2="0.6096" width="0" layer="51"/>
<wire x1="-6.096" y1="0.6096" x2="-5.1054" y2="0.6096" width="0" layer="51"/>
<wire x1="-5.1054" y1="0.127" x2="-5.1054" y2="0.381" width="0" layer="51"/>
<wire x1="-5.1054" y1="0.381" x2="-6.096" y2="0.381" width="0" layer="51"/>
<wire x1="-6.096" y1="0.381" x2="-6.096" y2="0.127" width="0" layer="51"/>
<wire x1="-6.096" y1="0.127" x2="-5.1054" y2="0.127" width="0" layer="51"/>
<wire x1="-5.1054" y1="-0.381" x2="-5.1054" y2="-0.127" width="0" layer="51"/>
<wire x1="-5.1054" y1="-0.127" x2="-6.096" y2="-0.127" width="0" layer="51"/>
<wire x1="-6.096" y1="-0.127" x2="-6.096" y2="-0.381" width="0" layer="51"/>
<wire x1="-6.096" y1="-0.381" x2="-5.1054" y2="-0.381" width="0" layer="51"/>
<wire x1="-5.1054" y1="-0.889" x2="-5.1054" y2="-0.6096" width="0" layer="51"/>
<wire x1="-5.1054" y1="-0.6096" x2="-6.096" y2="-0.6096" width="0" layer="51"/>
<wire x1="-6.096" y1="-0.6096" x2="-6.096" y2="-0.889" width="0" layer="51"/>
<wire x1="-6.096" y1="-0.889" x2="-5.1054" y2="-0.889" width="0" layer="51"/>
<wire x1="-5.1054" y1="-1.397" x2="-5.1054" y2="-1.1176" width="0" layer="51"/>
<wire x1="-5.1054" y1="-1.1176" x2="-6.096" y2="-1.1176" width="0" layer="51"/>
<wire x1="-6.096" y1="-1.1176" x2="-6.096" y2="-1.397" width="0" layer="51"/>
<wire x1="-6.096" y1="-1.397" x2="-5.1054" y2="-1.397" width="0" layer="51"/>
<wire x1="-5.1054" y1="-1.8796" x2="-5.1054" y2="-1.6256" width="0" layer="51"/>
<wire x1="-5.1054" y1="-1.6256" x2="-6.096" y2="-1.6256" width="0" layer="51"/>
<wire x1="-6.096" y1="-1.6256" x2="-6.096" y2="-1.8796" width="0" layer="51"/>
<wire x1="-6.096" y1="-1.8796" x2="-5.1054" y2="-1.8796" width="0" layer="51"/>
<wire x1="-5.1054" y1="-2.3876" x2="-5.1054" y2="-2.1082" width="0" layer="51"/>
<wire x1="-5.1054" y1="-2.1082" x2="-6.096" y2="-2.1082" width="0" layer="51"/>
<wire x1="-6.096" y1="-2.1082" x2="-6.096" y2="-2.3876" width="0" layer="51"/>
<wire x1="-6.096" y1="-2.3876" x2="-5.1054" y2="-2.3876" width="0" layer="51"/>
<wire x1="-5.1054" y1="-2.8956" x2="-5.1054" y2="-2.6162" width="0" layer="51"/>
<wire x1="-5.1054" y1="-2.6162" x2="-6.096" y2="-2.6162" width="0" layer="51"/>
<wire x1="-6.096" y1="-2.6162" x2="-6.096" y2="-2.8956" width="0" layer="51"/>
<wire x1="-6.096" y1="-2.8956" x2="-5.1054" y2="-2.8956" width="0" layer="51"/>
<wire x1="-5.1054" y1="-3.3782" x2="-5.1054" y2="-3.1242" width="0" layer="51"/>
<wire x1="-5.1054" y1="-3.1242" x2="-6.096" y2="-3.1242" width="0" layer="51"/>
<wire x1="-6.096" y1="-3.1242" x2="-6.096" y2="-3.3782" width="0" layer="51"/>
<wire x1="-6.096" y1="-3.3782" x2="-5.1054" y2="-3.3782" width="0" layer="51"/>
<wire x1="-5.1054" y1="-3.8862" x2="-5.1054" y2="-3.6068" width="0" layer="51"/>
<wire x1="-5.1054" y1="-3.6068" x2="-6.096" y2="-3.6068" width="0" layer="51"/>
<wire x1="-6.096" y1="-3.6068" x2="-6.096" y2="-3.8862" width="0" layer="51"/>
<wire x1="-6.096" y1="-3.8862" x2="-5.1054" y2="-3.8862" width="0" layer="51"/>
<wire x1="-3.6068" y1="-5.1054" x2="-3.8862" y2="-5.1054" width="0" layer="51"/>
<wire x1="-3.8862" y1="-5.1054" x2="-3.8862" y2="-6.096" width="0" layer="51"/>
<wire x1="-3.8862" y1="-6.096" x2="-3.6068" y2="-6.096" width="0" layer="51"/>
<wire x1="-3.6068" y1="-6.096" x2="-3.6068" y2="-5.1054" width="0" layer="51"/>
<wire x1="-3.1242" y1="-5.1054" x2="-3.3782" y2="-5.1054" width="0" layer="51"/>
<wire x1="-3.3782" y1="-5.1054" x2="-3.3782" y2="-6.096" width="0" layer="51"/>
<wire x1="-3.3782" y1="-6.096" x2="-3.1242" y2="-6.096" width="0" layer="51"/>
<wire x1="-3.1242" y1="-6.096" x2="-3.1242" y2="-5.1054" width="0" layer="51"/>
<wire x1="-2.6162" y1="-5.1054" x2="-2.8956" y2="-5.1054" width="0" layer="51"/>
<wire x1="-2.8956" y1="-5.1054" x2="-2.8956" y2="-6.096" width="0" layer="51"/>
<wire x1="-2.8956" y1="-6.096" x2="-2.6162" y2="-6.096" width="0" layer="51"/>
<wire x1="-2.6162" y1="-6.096" x2="-2.6162" y2="-5.1054" width="0" layer="51"/>
<wire x1="-2.1082" y1="-5.1054" x2="-2.3876" y2="-5.1054" width="0" layer="51"/>
<wire x1="-2.3876" y1="-5.1054" x2="-2.3876" y2="-6.096" width="0" layer="51"/>
<wire x1="-2.3876" y1="-6.096" x2="-2.1082" y2="-6.096" width="0" layer="51"/>
<wire x1="-2.1082" y1="-6.096" x2="-2.1082" y2="-5.1054" width="0" layer="51"/>
<wire x1="-1.6256" y1="-5.1054" x2="-1.8796" y2="-5.1054" width="0" layer="51"/>
<wire x1="-1.8796" y1="-5.1054" x2="-1.8796" y2="-6.096" width="0" layer="51"/>
<wire x1="-1.8796" y1="-6.096" x2="-1.6256" y2="-6.096" width="0" layer="51"/>
<wire x1="-1.6256" y1="-6.096" x2="-1.6256" y2="-5.1054" width="0" layer="51"/>
<wire x1="-1.1176" y1="-5.1054" x2="-1.397" y2="-5.1054" width="0" layer="51"/>
<wire x1="-1.397" y1="-5.1054" x2="-1.397" y2="-6.096" width="0" layer="51"/>
<wire x1="-1.397" y1="-6.096" x2="-1.1176" y2="-6.096" width="0" layer="51"/>
<wire x1="-1.1176" y1="-6.096" x2="-1.1176" y2="-5.1054" width="0" layer="51"/>
<wire x1="-0.6096" y1="-5.1054" x2="-0.889" y2="-5.1054" width="0" layer="51"/>
<wire x1="-0.889" y1="-5.1054" x2="-0.889" y2="-6.096" width="0" layer="51"/>
<wire x1="-0.889" y1="-6.096" x2="-0.6096" y2="-6.096" width="0" layer="51"/>
<wire x1="-0.6096" y1="-6.096" x2="-0.6096" y2="-5.1054" width="0" layer="51"/>
<wire x1="-0.127" y1="-5.1054" x2="-0.381" y2="-5.1054" width="0" layer="51"/>
<wire x1="-0.381" y1="-5.1054" x2="-0.381" y2="-6.096" width="0" layer="51"/>
<wire x1="-0.381" y1="-6.096" x2="-0.127" y2="-6.096" width="0" layer="51"/>
<wire x1="-0.127" y1="-6.096" x2="-0.127" y2="-5.1054" width="0" layer="51"/>
<wire x1="0.381" y1="-5.1054" x2="0.127" y2="-5.1054" width="0" layer="51"/>
<wire x1="0.127" y1="-5.1054" x2="0.127" y2="-6.096" width="0" layer="51"/>
<wire x1="0.127" y1="-6.096" x2="0.381" y2="-6.096" width="0" layer="51"/>
<wire x1="0.381" y1="-6.096" x2="0.381" y2="-5.1054" width="0" layer="51"/>
<wire x1="0.889" y1="-5.1054" x2="0.6096" y2="-5.1054" width="0" layer="51"/>
<wire x1="0.6096" y1="-5.1054" x2="0.6096" y2="-6.096" width="0" layer="51"/>
<wire x1="0.6096" y1="-6.096" x2="0.889" y2="-6.096" width="0" layer="51"/>
<wire x1="0.889" y1="-6.096" x2="0.889" y2="-5.1054" width="0" layer="51"/>
<wire x1="1.397" y1="-5.1054" x2="1.1176" y2="-5.1054" width="0" layer="51"/>
<wire x1="1.1176" y1="-5.1054" x2="1.1176" y2="-6.096" width="0" layer="51"/>
<wire x1="1.1176" y1="-6.096" x2="1.397" y2="-6.096" width="0" layer="51"/>
<wire x1="1.397" y1="-6.096" x2="1.397" y2="-5.1054" width="0" layer="51"/>
<wire x1="1.8796" y1="-5.1054" x2="1.6256" y2="-5.1054" width="0" layer="51"/>
<wire x1="1.6256" y1="-5.1054" x2="1.6256" y2="-6.096" width="0" layer="51"/>
<wire x1="1.6256" y1="-6.096" x2="1.8796" y2="-6.096" width="0" layer="51"/>
<wire x1="1.8796" y1="-6.096" x2="1.8796" y2="-5.1054" width="0" layer="51"/>
<wire x1="2.3876" y1="-5.1054" x2="2.1082" y2="-5.1054" width="0" layer="51"/>
<wire x1="2.1082" y1="-5.1054" x2="2.1082" y2="-6.096" width="0" layer="51"/>
<wire x1="2.1082" y1="-6.096" x2="2.3876" y2="-6.096" width="0" layer="51"/>
<wire x1="2.3876" y1="-6.096" x2="2.3876" y2="-5.1054" width="0" layer="51"/>
<wire x1="2.8956" y1="-5.1054" x2="2.6162" y2="-5.1054" width="0" layer="51"/>
<wire x1="2.6162" y1="-5.1054" x2="2.6162" y2="-6.096" width="0" layer="51"/>
<wire x1="2.6162" y1="-6.096" x2="2.8956" y2="-6.096" width="0" layer="51"/>
<wire x1="2.8956" y1="-6.096" x2="2.8956" y2="-5.1054" width="0" layer="51"/>
<wire x1="3.3782" y1="-5.1054" x2="3.1242" y2="-5.1054" width="0" layer="51"/>
<wire x1="3.1242" y1="-5.1054" x2="3.1242" y2="-6.096" width="0" layer="51"/>
<wire x1="3.1242" y1="-6.096" x2="3.3782" y2="-6.096" width="0" layer="51"/>
<wire x1="3.3782" y1="-6.096" x2="3.3782" y2="-5.1054" width="0" layer="51"/>
<wire x1="3.8862" y1="-5.1054" x2="3.6068" y2="-5.1054" width="0" layer="51"/>
<wire x1="3.6068" y1="-5.1054" x2="3.6068" y2="-6.096" width="0" layer="51"/>
<wire x1="3.6068" y1="-6.096" x2="3.8862" y2="-6.096" width="0" layer="51"/>
<wire x1="3.8862" y1="-6.096" x2="3.8862" y2="-5.1054" width="0" layer="51"/>
<wire x1="5.1054" y1="-3.6068" x2="5.1054" y2="-3.8862" width="0" layer="51"/>
<wire x1="5.1054" y1="-3.8862" x2="6.096" y2="-3.8862" width="0" layer="51"/>
<wire x1="6.096" y1="-3.8862" x2="6.096" y2="-3.6068" width="0" layer="51"/>
<wire x1="6.096" y1="-3.6068" x2="5.1054" y2="-3.6068" width="0" layer="51"/>
<wire x1="5.1054" y1="-3.1242" x2="5.1054" y2="-3.3782" width="0" layer="51"/>
<wire x1="5.1054" y1="-3.3782" x2="6.096" y2="-3.3782" width="0" layer="51"/>
<wire x1="6.096" y1="-3.3782" x2="6.096" y2="-3.1242" width="0" layer="51"/>
<wire x1="6.096" y1="-3.1242" x2="5.1054" y2="-3.1242" width="0" layer="51"/>
<wire x1="5.1054" y1="-2.6162" x2="5.1054" y2="-2.8956" width="0" layer="51"/>
<wire x1="5.1054" y1="-2.8956" x2="6.096" y2="-2.8956" width="0" layer="51"/>
<wire x1="6.096" y1="-2.8956" x2="6.096" y2="-2.6162" width="0" layer="51"/>
<wire x1="6.096" y1="-2.6162" x2="5.1054" y2="-2.6162" width="0" layer="51"/>
<wire x1="5.1054" y1="-2.1082" x2="5.1054" y2="-2.3876" width="0" layer="51"/>
<wire x1="5.1054" y1="-2.3876" x2="6.096" y2="-2.3876" width="0" layer="51"/>
<wire x1="6.096" y1="-2.3876" x2="6.096" y2="-2.1082" width="0" layer="51"/>
<wire x1="6.096" y1="-2.1082" x2="5.1054" y2="-2.1082" width="0" layer="51"/>
<wire x1="5.1054" y1="-1.6256" x2="5.1054" y2="-1.8796" width="0" layer="51"/>
<wire x1="5.1054" y1="-1.8796" x2="6.096" y2="-1.8796" width="0" layer="51"/>
<wire x1="6.096" y1="-1.8796" x2="6.096" y2="-1.6256" width="0" layer="51"/>
<wire x1="6.096" y1="-1.6256" x2="5.1054" y2="-1.6256" width="0" layer="51"/>
<wire x1="5.1054" y1="-1.1176" x2="5.1054" y2="-1.397" width="0" layer="51"/>
<wire x1="5.1054" y1="-1.397" x2="6.096" y2="-1.397" width="0" layer="51"/>
<wire x1="6.096" y1="-1.397" x2="6.096" y2="-1.1176" width="0" layer="51"/>
<wire x1="6.096" y1="-1.1176" x2="5.1054" y2="-1.1176" width="0" layer="51"/>
<wire x1="5.1054" y1="-0.6096" x2="5.1054" y2="-0.889" width="0" layer="51"/>
<wire x1="5.1054" y1="-0.889" x2="6.096" y2="-0.889" width="0" layer="51"/>
<wire x1="6.096" y1="-0.889" x2="6.096" y2="-0.6096" width="0" layer="51"/>
<wire x1="6.096" y1="-0.6096" x2="5.1054" y2="-0.6096" width="0" layer="51"/>
<wire x1="5.1054" y1="-0.127" x2="5.1054" y2="-0.381" width="0" layer="51"/>
<wire x1="5.1054" y1="-0.381" x2="6.096" y2="-0.381" width="0" layer="51"/>
<wire x1="6.096" y1="-0.381" x2="6.096" y2="-0.127" width="0" layer="51"/>
<wire x1="6.096" y1="-0.127" x2="5.1054" y2="-0.127" width="0" layer="51"/>
<wire x1="5.1054" y1="0.381" x2="5.1054" y2="0.127" width="0" layer="51"/>
<wire x1="5.1054" y1="0.127" x2="6.096" y2="0.127" width="0" layer="51"/>
<wire x1="6.096" y1="0.127" x2="6.096" y2="0.381" width="0" layer="51"/>
<wire x1="6.096" y1="0.381" x2="5.1054" y2="0.381" width="0" layer="51"/>
<wire x1="5.1054" y1="0.889" x2="5.1054" y2="0.6096" width="0" layer="51"/>
<wire x1="5.1054" y1="0.6096" x2="6.096" y2="0.6096" width="0" layer="51"/>
<wire x1="6.096" y1="0.6096" x2="6.096" y2="0.889" width="0" layer="51"/>
<wire x1="6.096" y1="0.889" x2="5.1054" y2="0.889" width="0" layer="51"/>
<wire x1="5.1054" y1="1.397" x2="5.1054" y2="1.1176" width="0" layer="51"/>
<wire x1="5.1054" y1="1.1176" x2="6.096" y2="1.1176" width="0" layer="51"/>
<wire x1="6.096" y1="1.1176" x2="6.096" y2="1.397" width="0" layer="51"/>
<wire x1="6.096" y1="1.397" x2="5.1054" y2="1.397" width="0" layer="51"/>
<wire x1="5.1054" y1="1.8796" x2="5.1054" y2="1.6256" width="0" layer="51"/>
<wire x1="5.1054" y1="1.6256" x2="6.096" y2="1.6256" width="0" layer="51"/>
<wire x1="6.096" y1="1.6256" x2="6.096" y2="1.8796" width="0" layer="51"/>
<wire x1="6.096" y1="1.8796" x2="5.1054" y2="1.8796" width="0" layer="51"/>
<wire x1="5.1054" y1="2.3876" x2="5.1054" y2="2.1082" width="0" layer="51"/>
<wire x1="5.1054" y1="2.1082" x2="6.096" y2="2.1082" width="0" layer="51"/>
<wire x1="6.096" y1="2.1082" x2="6.096" y2="2.3876" width="0" layer="51"/>
<wire x1="6.096" y1="2.3876" x2="5.1054" y2="2.3876" width="0" layer="51"/>
<wire x1="5.1054" y1="2.8956" x2="5.1054" y2="2.6162" width="0" layer="51"/>
<wire x1="5.1054" y1="2.6162" x2="6.096" y2="2.6162" width="0" layer="51"/>
<wire x1="6.096" y1="2.6162" x2="6.096" y2="2.8956" width="0" layer="51"/>
<wire x1="6.096" y1="2.8956" x2="5.1054" y2="2.8956" width="0" layer="51"/>
<wire x1="5.1054" y1="3.3782" x2="5.1054" y2="3.1242" width="0" layer="51"/>
<wire x1="5.1054" y1="3.1242" x2="6.096" y2="3.1242" width="0" layer="51"/>
<wire x1="6.096" y1="3.1242" x2="6.096" y2="3.3782" width="0" layer="51"/>
<wire x1="6.096" y1="3.3782" x2="5.1054" y2="3.3782" width="0" layer="51"/>
<wire x1="5.1054" y1="3.8862" x2="5.1054" y2="3.6068" width="0" layer="51"/>
<wire x1="5.1054" y1="3.6068" x2="6.096" y2="3.6068" width="0" layer="51"/>
<wire x1="6.096" y1="3.6068" x2="6.096" y2="3.8862" width="0" layer="51"/>
<wire x1="6.096" y1="3.8862" x2="5.1054" y2="3.8862" width="0" layer="51"/>
<wire x1="-5.1054" y1="3.8354" x2="-3.8354" y2="5.1054" width="0" layer="51"/>
<wire x1="-5.1054" y1="-5.1054" x2="5.1054" y2="-5.1054" width="0" layer="51"/>
<wire x1="5.1054" y1="-5.1054" x2="5.1054" y2="5.1054" width="0" layer="51"/>
<wire x1="5.1054" y1="5.1054" x2="-5.1054" y2="5.1054" width="0" layer="51"/>
<wire x1="-5.1054" y1="5.1054" x2="-5.1054" y2="-5.1054" width="0" layer="51"/>
<text x="-7.6708" y="3.7338" size="1.27" layer="51" ratio="6" rot="SR0">*</text>
<text x="-3.4544" y="8.89" size="2.0828" layer="25" ratio="10" rot="SR0">&gt;NAME</text>
<text x="-3.4544" y="-11.43" size="2.0828" layer="27" ratio="10" rot="SR0">&gt;VALUE</text>
</package>
<package name="QFN50P500X500X60-33N">
<smd name="1" x="-2.4638" y="1.7526" dx="0.2794" dy="0.8128" layer="1" rot="R270"/>
<smd name="2" x="-2.4638" y="1.2446" dx="0.2794" dy="0.8128" layer="1" rot="R270"/>
<smd name="3" x="-2.4638" y="0.762" dx="0.2794" dy="0.8128" layer="1" rot="R270"/>
<smd name="4" x="-2.4638" y="0.254" dx="0.2794" dy="0.8128" layer="1" rot="R270"/>
<smd name="5" x="-2.4638" y="-0.254" dx="0.2794" dy="0.8128" layer="1" rot="R270"/>
<smd name="6" x="-2.4638" y="-0.762" dx="0.2794" dy="0.8128" layer="1" rot="R270"/>
<smd name="7" x="-2.4638" y="-1.2446" dx="0.2794" dy="0.8128" layer="1" rot="R270"/>
<smd name="8" x="-2.4638" y="-1.7526" dx="0.2794" dy="0.8128" layer="1" rot="R270"/>
<smd name="9" x="-1.7526" y="-2.4638" dx="0.2794" dy="0.8128" layer="1" rot="R180"/>
<smd name="10" x="-1.2446" y="-2.4638" dx="0.2794" dy="0.8128" layer="1" rot="R180"/>
<smd name="11" x="-0.762" y="-2.4638" dx="0.2794" dy="0.8128" layer="1" rot="R180"/>
<smd name="12" x="-0.254" y="-2.4638" dx="0.2794" dy="0.8128" layer="1" rot="R180"/>
<smd name="13" x="0.254" y="-2.4638" dx="0.2794" dy="0.8128" layer="1" rot="R180"/>
<smd name="14" x="0.762" y="-2.4638" dx="0.2794" dy="0.8128" layer="1" rot="R180"/>
<smd name="15" x="1.2446" y="-2.4638" dx="0.2794" dy="0.8128" layer="1" rot="R180"/>
<smd name="16" x="1.7526" y="-2.4638" dx="0.2794" dy="0.8128" layer="1" rot="R180"/>
<smd name="17" x="2.4638" y="-1.7526" dx="0.2794" dy="0.8128" layer="1" rot="R270"/>
<smd name="18" x="2.4638" y="-1.2446" dx="0.2794" dy="0.8128" layer="1" rot="R270"/>
<smd name="19" x="2.4638" y="-0.762" dx="0.2794" dy="0.8128" layer="1" rot="R270"/>
<smd name="20" x="2.4638" y="-0.254" dx="0.2794" dy="0.8128" layer="1" rot="R270"/>
<smd name="21" x="2.4638" y="0.254" dx="0.2794" dy="0.8128" layer="1" rot="R270"/>
<smd name="22" x="2.4638" y="0.762" dx="0.2794" dy="0.8128" layer="1" rot="R270"/>
<smd name="23" x="2.4638" y="1.2446" dx="0.2794" dy="0.8128" layer="1" rot="R270"/>
<smd name="24" x="2.4638" y="1.7526" dx="0.2794" dy="0.8128" layer="1" rot="R270"/>
<smd name="25" x="1.7526" y="2.4638" dx="0.2794" dy="0.8128" layer="1" rot="R180"/>
<smd name="26" x="1.2446" y="2.4638" dx="0.2794" dy="0.8128" layer="1" rot="R180"/>
<smd name="27" x="0.762" y="2.4638" dx="0.2794" dy="0.8128" layer="1" rot="R180"/>
<smd name="28" x="0.254" y="2.4638" dx="0.2794" dy="0.8128" layer="1" rot="R180"/>
<smd name="29" x="-0.254" y="2.4638" dx="0.2794" dy="0.8128" layer="1" rot="R180"/>
<smd name="30" x="-0.762" y="2.4638" dx="0.2794" dy="0.8128" layer="1" rot="R180"/>
<smd name="31" x="-1.2446" y="2.4638" dx="0.2794" dy="0.8128" layer="1" rot="R180"/>
<smd name="32" x="-1.7526" y="2.4638" dx="0.2794" dy="0.8128" layer="1" rot="R180"/>
<smd name="33" x="0" y="0" dx="3.5052" dy="3.5052" layer="1"/>
<wire x1="-1.4478" y1="-3.0988" x2="-1.4478" y2="-3.3528" width="0.1524" layer="49"/>
<wire x1="-1.4478" y1="-3.3528" x2="-1.0668" y2="-3.3528" width="0.1524" layer="49"/>
<wire x1="-1.0668" y1="-3.3528" x2="-1.0668" y2="-3.0988" width="0.1524" layer="49"/>
<wire x1="-1.0668" y1="-3.0988" x2="-1.4478" y2="-3.0988" width="0.1524" layer="49"/>
<wire x1="3.3528" y1="-0.0508" x2="3.3528" y2="-0.4318" width="0.1524" layer="49"/>
<wire x1="3.3528" y1="-0.4318" x2="3.0988" y2="-0.4318" width="0.1524" layer="49"/>
<wire x1="3.0988" y1="-0.4318" x2="3.0988" y2="-0.0508" width="0.1524" layer="49"/>
<wire x1="3.0988" y1="-0.0508" x2="3.3528" y2="-0.0508" width="0.1524" layer="49"/>
<wire x1="-0.9398" y1="3.0988" x2="-0.9398" y2="3.3528" width="0.1524" layer="49"/>
<wire x1="-0.9398" y1="3.3528" x2="-0.5588" y2="3.3528" width="0.1524" layer="49"/>
<wire x1="-0.5588" y1="3.3528" x2="-0.5588" y2="3.0988" width="0.1524" layer="49"/>
<wire x1="-0.5588" y1="3.0988" x2="-0.9398" y2="3.0988" width="0.1524" layer="49"/>
<wire x1="-3.0988" y1="-3.0988" x2="-3.0988" y2="3.0988" width="0.1524" layer="39"/>
<wire x1="-3.0988" y1="3.0988" x2="3.0988" y2="3.0988" width="0.1524" layer="39"/>
<wire x1="3.0988" y1="3.0988" x2="3.0988" y2="-3.0988" width="0.1524" layer="39"/>
<wire x1="3.0988" y1="-3.0988" x2="-3.0988" y2="-3.0988" width="0.1524" layer="39"/>
<wire x1="2.54" y1="2.2352" x2="2.54" y2="2.54" width="0.1524" layer="21"/>
<wire x1="2.2352" y1="-2.54" x2="2.54" y2="-2.54" width="0.1524" layer="21"/>
<wire x1="-2.2352" y1="2.54" x2="-2.54" y2="2.54" width="0.1524" layer="21"/>
<wire x1="-2.54" y1="-2.54" x2="-2.2352" y2="-2.54" width="0.1524" layer="21"/>
<wire x1="2.54" y1="-2.54" x2="2.54" y2="-2.2352" width="0.1524" layer="21"/>
<wire x1="2.54" y1="2.54" x2="2.2352" y2="2.54" width="0.1524" layer="21"/>
<wire x1="-2.54" y1="2.54" x2="-2.54" y2="2.2352" width="0.1524" layer="21"/>
<wire x1="-2.54" y1="-2.2352" x2="-2.54" y2="-2.54" width="0.1524" layer="21"/>
<text x="-4.064" y="1.7526" size="1.27" layer="21" ratio="6" rot="SR0">*</text>
<wire x1="-2.54" y1="1.27" x2="-1.27" y2="2.54" width="0.1524" layer="51"/>
<wire x1="1.8796" y1="2.54" x2="1.6002" y2="2.54" width="0.1524" layer="51"/>
<wire x1="1.397" y1="2.54" x2="1.1176" y2="2.54" width="0.1524" layer="51"/>
<wire x1="0.889" y1="2.54" x2="0.6096" y2="2.54" width="0.1524" layer="51"/>
<wire x1="0.381" y1="2.54" x2="0.1016" y2="2.54" width="0.1524" layer="51"/>
<wire x1="-0.1016" y1="2.54" x2="-0.381" y2="2.54" width="0.1524" layer="51"/>
<wire x1="-0.6096" y1="2.54" x2="-0.889" y2="2.54" width="0.1524" layer="51"/>
<wire x1="-1.1176" y1="2.54" x2="-1.397" y2="2.54" width="0.1524" layer="51"/>
<wire x1="-1.6002" y1="2.54" x2="-1.8796" y2="2.54" width="0.1524" layer="51"/>
<wire x1="-2.54" y1="1.8796" x2="-2.54" y2="1.6002" width="0.1524" layer="51"/>
<wire x1="-2.54" y1="1.397" x2="-2.54" y2="1.1176" width="0.1524" layer="51"/>
<wire x1="-2.54" y1="0.889" x2="-2.54" y2="0.6096" width="0.1524" layer="51"/>
<wire x1="-2.54" y1="0.381" x2="-2.54" y2="0.1016" width="0.1524" layer="51"/>
<wire x1="-2.54" y1="-0.1016" x2="-2.54" y2="-0.381" width="0.1524" layer="51"/>
<wire x1="-2.54" y1="-0.6096" x2="-2.54" y2="-0.889" width="0.1524" layer="51"/>
<wire x1="-2.54" y1="-1.1176" x2="-2.54" y2="-1.397" width="0.1524" layer="51"/>
<wire x1="-2.54" y1="-1.6002" x2="-2.54" y2="-1.8796" width="0.1524" layer="51"/>
<wire x1="-1.8796" y1="-2.54" x2="-1.6002" y2="-2.54" width="0.1524" layer="51"/>
<wire x1="-1.397" y1="-2.54" x2="-1.1176" y2="-2.54" width="0.1524" layer="51"/>
<wire x1="-0.889" y1="-2.54" x2="-0.6096" y2="-2.54" width="0.1524" layer="51"/>
<wire x1="-0.381" y1="-2.54" x2="-0.1016" y2="-2.54" width="0.1524" layer="51"/>
<wire x1="0.1016" y1="-2.54" x2="0.381" y2="-2.54" width="0.1524" layer="51"/>
<wire x1="0.6096" y1="-2.54" x2="0.889" y2="-2.54" width="0.1524" layer="51"/>
<wire x1="1.1176" y1="-2.54" x2="1.397" y2="-2.54" width="0.1524" layer="51"/>
<wire x1="1.6002" y1="-2.54" x2="1.8796" y2="-2.54" width="0.1524" layer="51"/>
<wire x1="2.54" y1="-1.8796" x2="2.54" y2="-1.6002" width="0.1524" layer="51"/>
<wire x1="2.54" y1="-1.397" x2="2.54" y2="-1.1176" width="0.1524" layer="51"/>
<wire x1="2.54" y1="-0.889" x2="2.54" y2="-0.6096" width="0.1524" layer="51"/>
<wire x1="2.54" y1="-0.381" x2="2.54" y2="-0.1016" width="0.1524" layer="51"/>
<wire x1="2.54" y1="0.1016" x2="2.54" y2="0.381" width="0.1524" layer="51"/>
<wire x1="2.54" y1="0.6096" x2="2.54" y2="0.889" width="0.1524" layer="51"/>
<wire x1="2.54" y1="1.1176" x2="2.54" y2="1.397" width="0.1524" layer="51"/>
<wire x1="2.54" y1="1.6002" x2="2.54" y2="1.8796" width="0.1524" layer="51"/>
<wire x1="-2.54" y1="-2.54" x2="2.54" y2="-2.54" width="0.1524" layer="51"/>
<wire x1="2.54" y1="-2.54" x2="2.54" y2="2.54" width="0.1524" layer="51"/>
<wire x1="2.54" y1="2.54" x2="-2.54" y2="2.54" width="0.1524" layer="51"/>
<wire x1="-2.54" y1="2.54" x2="-2.54" y2="-2.54" width="0.1524" layer="51"/>
<text x="-4.064" y="1.7526" size="1.27" layer="51" ratio="6" rot="SR0">*</text>
<text x="-4.699" y="3.6068" size="2.0828" layer="25" ratio="10" rot="SR0">&gt;NAME</text>
<text x="-5.6388" y="-6.1722" size="2.0828" layer="27" ratio="10" rot="SR0">&gt;VALUE</text>
</package>
</packages>
<symbols>
<symbol name="STM32F103C6T7A">
<pin name="VBAT" x="-25.4" y="38.1" length="middle" direction="pwr"/>
<pin name="VDDA" x="-25.4" y="30.48" length="middle" direction="pwr"/>
<pin name="VDD_1" x="-25.4" y="27.94" length="middle" direction="pwr"/>
<pin name="VDD_2" x="-25.4" y="25.4" length="middle" direction="pwr"/>
<pin name="VDD_3" x="-25.4" y="22.86" length="middle" direction="pwr"/>
<pin name="PC13-TAMPER-RTC" x="-25.4" y="12.7" length="middle"/>
<pin name="PC14-OSC32_IN" x="-25.4" y="10.16" length="middle"/>
<pin name="PC15-OSC32_OUT" x="-25.4" y="7.62" length="middle"/>
<pin name="PD0-OSC_IN" x="-25.4" y="0" length="middle"/>
<pin name="PD1-OSC_OUT" x="-25.4" y="-2.54" length="middle"/>
<pin name="NRST" x="-25.4" y="-12.7" length="middle"/>
<pin name="BOOT0" x="-25.4" y="-15.24" length="middle" direction="in"/>
<pin name="VSSA" x="-25.4" y="-27.94" length="middle" direction="pas"/>
<pin name="VSS_1" x="-25.4" y="-30.48" length="middle" direction="pas"/>
<pin name="VSS_2" x="-25.4" y="-33.02" length="middle" direction="pas"/>
<pin name="VSS_3" x="-25.4" y="-35.56" length="middle" direction="pas"/>
<pin name="PA0-WKUP" x="25.4" y="38.1" length="middle" rot="R180"/>
<pin name="PA1" x="25.4" y="35.56" length="middle" rot="R180"/>
<pin name="PA2" x="25.4" y="33.02" length="middle" rot="R180"/>
<pin name="PA3" x="25.4" y="30.48" length="middle" rot="R180"/>
<pin name="PA4" x="25.4" y="27.94" length="middle" rot="R180"/>
<pin name="PA5" x="25.4" y="25.4" length="middle" rot="R180"/>
<pin name="PA6" x="25.4" y="22.86" length="middle" rot="R180"/>
<pin name="PA7" x="25.4" y="20.32" length="middle" rot="R180"/>
<pin name="PA8" x="25.4" y="17.78" length="middle" rot="R180"/>
<pin name="PA9" x="25.4" y="15.24" length="middle" rot="R180"/>
<pin name="PA10" x="25.4" y="12.7" length="middle" rot="R180"/>
<pin name="PA11" x="25.4" y="10.16" length="middle" rot="R180"/>
<pin name="PA12" x="25.4" y="7.62" length="middle" rot="R180"/>
<pin name="PA13" x="25.4" y="5.08" length="middle" rot="R180"/>
<pin name="PA14" x="25.4" y="2.54" length="middle" rot="R180"/>
<pin name="PA15" x="25.4" y="0" length="middle" rot="R180"/>
<pin name="PB0" x="25.4" y="-5.08" length="middle" rot="R180"/>
<pin name="PB1" x="25.4" y="-7.62" length="middle" rot="R180"/>
<pin name="PB2" x="25.4" y="-10.16" length="middle" rot="R180"/>
<pin name="PB3" x="25.4" y="-12.7" length="middle" rot="R180"/>
<pin name="PB4" x="25.4" y="-15.24" length="middle" rot="R180"/>
<pin name="PB5" x="25.4" y="-17.78" length="middle" rot="R180"/>
<pin name="PB6" x="25.4" y="-20.32" length="middle" rot="R180"/>
<pin name="PB7" x="25.4" y="-22.86" length="middle" rot="R180"/>
<pin name="PB8" x="25.4" y="-25.4" length="middle" rot="R180"/>
<pin name="PB9" x="25.4" y="-27.94" length="middle" rot="R180"/>
<pin name="PB10" x="25.4" y="-30.48" length="middle" rot="R180"/>
<pin name="PB11" x="25.4" y="-33.02" length="middle" rot="R180"/>
<pin name="PB12" x="25.4" y="-35.56" length="middle" rot="R180"/>
<pin name="PB13" x="25.4" y="-38.1" length="middle" rot="R180"/>
<pin name="PB14" x="25.4" y="-40.64" length="middle" rot="R180"/>
<pin name="PB15" x="25.4" y="-43.18" length="middle" rot="R180"/>
<wire x1="-20.32" y1="43.18" x2="-20.32" y2="-48.26" width="0.4064" layer="94"/>
<wire x1="-20.32" y1="-48.26" x2="20.32" y2="-48.26" width="0.4064" layer="94"/>
<wire x1="20.32" y1="-48.26" x2="20.32" y2="43.18" width="0.4064" layer="94"/>
<wire x1="20.32" y1="43.18" x2="-20.32" y2="43.18" width="0.4064" layer="94"/>
<text x="-4.9784" y="44.6532" size="2.0828" layer="95" ratio="10" rot="SR0">&gt;NAME</text>
<text x="-5.6642" y="-51.9684" size="2.0828" layer="96" ratio="10" rot="SR0">&gt;VALUE</text>
</symbol>
<symbol name="STM32F103RET6">
<pin name="VDDA" x="-30.48" y="55.88" length="middle" direction="pwr"/>
<pin name="VDD_2" x="-30.48" y="53.34" length="middle" direction="pwr"/>
<pin name="VDD_3" x="-30.48" y="50.8" length="middle" direction="pwr"/>
<pin name="VDD_4" x="-30.48" y="48.26" length="middle" direction="pwr"/>
<pin name="VDD_1" x="-30.48" y="45.72" length="middle" direction="pwr"/>
<pin name="VBAT" x="-30.48" y="40.64" length="middle" direction="in"/>
<pin name="BOOT0" x="-30.48" y="38.1" length="middle" direction="pas"/>
<pin name="PA0-WKUP" x="-30.48" y="33.02" length="middle"/>
<pin name="PA1" x="-30.48" y="30.48" length="middle"/>
<pin name="PA2" x="-30.48" y="27.94" length="middle"/>
<pin name="PA3" x="-30.48" y="25.4" length="middle"/>
<pin name="PA4" x="-30.48" y="22.86" length="middle"/>
<pin name="PA5" x="-30.48" y="20.32" length="middle"/>
<pin name="PA6" x="-30.48" y="17.78" length="middle"/>
<pin name="PA7" x="-30.48" y="15.24" length="middle" direction="pwr"/>
<pin name="PA8" x="-30.48" y="12.7" length="middle"/>
<pin name="PA9" x="-30.48" y="10.16" length="middle"/>
<pin name="PA10" x="-30.48" y="7.62" length="middle"/>
<pin name="PA11" x="-30.48" y="5.08" length="middle"/>
<pin name="PA12" x="-30.48" y="2.54" length="middle"/>
<pin name="PA13" x="-30.48" y="0" length="middle"/>
<pin name="PA14" x="-30.48" y="-2.54" length="middle"/>
<pin name="PA15" x="-30.48" y="-5.08" length="middle"/>
<pin name="PB0" x="-30.48" y="-10.16" length="middle"/>
<pin name="PB1_2" x="-30.48" y="-12.7" length="middle"/>
<pin name="PB1" x="-30.48" y="-15.24" length="middle"/>
<pin name="PB3" x="-30.48" y="-17.78" length="middle"/>
<pin name="PB4" x="-30.48" y="-20.32" length="middle"/>
<pin name="PB5" x="-30.48" y="-22.86" length="middle"/>
<pin name="PB6" x="-30.48" y="-25.4" length="middle"/>
<pin name="PB7" x="-30.48" y="-27.94" length="middle" direction="pwr"/>
<pin name="PB8" x="-30.48" y="-30.48" length="middle"/>
<pin name="PB9" x="-30.48" y="-33.02" length="middle"/>
<pin name="PB10" x="-30.48" y="-35.56" length="middle"/>
<pin name="PB11" x="-30.48" y="-38.1" length="middle"/>
<pin name="PB12" x="-30.48" y="-40.64" length="middle"/>
<pin name="PB13" x="-30.48" y="-43.18" length="middle"/>
<pin name="PB14" x="-30.48" y="-45.72" length="middle"/>
<pin name="PB15" x="-30.48" y="-48.26" length="middle"/>
<pin name="VSS_1" x="-30.48" y="-53.34" length="middle" direction="pas"/>
<pin name="VSS_4" x="-30.48" y="-55.88" length="middle" direction="pas"/>
<pin name="VSSA" x="-30.48" y="-58.42" length="middle" direction="pas"/>
<pin name="VSS_2" x="-30.48" y="-60.96" length="middle" direction="pas"/>
<pin name="VSS_3" x="-30.48" y="-63.5" length="middle" direction="pas"/>
<pin name="NRST" x="30.48" y="55.88" length="middle" direction="out" rot="R180"/>
<pin name="PD0_OSC_IN" x="30.48" y="50.8" length="middle" direction="in" rot="R180"/>
<pin name="PD1_OSC_OUT" x="30.48" y="48.26" length="middle" direction="out" rot="R180"/>
<pin name="PD2" x="30.48" y="45.72" length="middle" rot="R180"/>
<pin name="PC0" x="30.48" y="40.64" length="middle" rot="R180"/>
<pin name="PC1" x="30.48" y="38.1" length="middle" rot="R180"/>
<pin name="PC2" x="30.48" y="35.56" length="middle" rot="R180"/>
<pin name="PC3" x="30.48" y="33.02" length="middle" rot="R180"/>
<pin name="PC4" x="30.48" y="30.48" length="middle" direction="pas" rot="R180"/>
<pin name="PC5" x="30.48" y="27.94" length="middle" rot="R180"/>
<pin name="PC6" x="30.48" y="25.4" length="middle" rot="R180"/>
<pin name="PC7" x="30.48" y="22.86" length="middle" rot="R180"/>
<pin name="PC8" x="30.48" y="20.32" length="middle" rot="R180"/>
<pin name="PC9" x="30.48" y="17.78" length="middle" rot="R180"/>
<pin name="PC10" x="30.48" y="15.24" length="middle" rot="R180"/>
<pin name="PC11" x="30.48" y="12.7" length="middle" rot="R180"/>
<pin name="PC12" x="30.48" y="10.16" length="middle" rot="R180"/>
<pin name="PC13-TAMPER-RTC" x="30.48" y="5.08" length="middle" direction="in" rot="R180"/>
<pin name="PC14-OSC32_IN" x="30.48" y="2.54" length="middle" direction="in" rot="R180"/>
<pin name="PC15-OSC32_OUT" x="30.48" y="0" length="middle" direction="out" rot="R180"/>
<wire x1="-25.4" y1="60.96" x2="-25.4" y2="-68.58" width="0.4064" layer="94"/>
<wire x1="-25.4" y1="-68.58" x2="25.4" y2="-68.58" width="0.4064" layer="94"/>
<wire x1="25.4" y1="-68.58" x2="25.4" y2="60.96" width="0.4064" layer="94"/>
<wire x1="25.4" y1="60.96" x2="-25.4" y2="60.96" width="0.4064" layer="94"/>
<text x="-5.3594" y="64.9986" size="2.0828" layer="95" ratio="10" rot="SR0">&gt;NAME</text>
<text x="-4.1402" y="-73.1774" size="2.0828" layer="96" ratio="10" rot="SR0">&gt;VALUE</text>
</symbol>
<symbol name="STM32F050K6U6A">
<pin name="VDD_2" x="-22.86" y="27.94" length="middle" direction="pwr"/>
<pin name="VDD" x="-22.86" y="25.4" length="middle" direction="pwr"/>
<pin name="VDDA" x="-22.86" y="22.86" length="middle" direction="pwr"/>
<pin name="BOOT0" x="-22.86" y="17.78" length="middle" direction="in"/>
<pin name="NRST" x="-22.86" y="12.7" length="middle"/>
<pin name="PA0" x="-22.86" y="7.62" length="middle"/>
<pin name="PA1" x="-22.86" y="5.08" length="middle"/>
<pin name="PA2" x="-22.86" y="2.54" length="middle"/>
<pin name="PA3" x="-22.86" y="0" length="middle"/>
<pin name="PA4" x="-22.86" y="-2.54" length="middle"/>
<pin name="PA5" x="-22.86" y="-5.08" length="middle"/>
<pin name="PA6" x="-22.86" y="-7.62" length="middle"/>
<pin name="PA7" x="-22.86" y="-10.16" length="middle"/>
<pin name="PA8" x="-22.86" y="-12.7" length="middle"/>
<pin name="PA9" x="-22.86" y="-15.24" length="middle"/>
<pin name="PA10" x="-22.86" y="-17.78" length="middle"/>
<pin name="PA11" x="-22.86" y="-20.32" length="middle"/>
<pin name="PA12" x="-22.86" y="-22.86" length="middle"/>
<pin name="PA13" x="-22.86" y="-25.4" length="middle"/>
<pin name="PA14" x="-22.86" y="-27.94" length="middle"/>
<pin name="PA15" x="-22.86" y="-30.48" length="middle"/>
<pin name="VSS/VSSA" x="-22.86" y="-35.56" length="middle" direction="pas"/>
<pin name="PB0" x="22.86" y="27.94" length="middle" rot="R180"/>
<pin name="PB1" x="22.86" y="25.4" length="middle" rot="R180"/>
<pin name="PB2" x="22.86" y="22.86" length="middle" rot="R180"/>
<pin name="PB3" x="22.86" y="20.32" length="middle" rot="R180"/>
<pin name="PB4" x="22.86" y="17.78" length="middle" rot="R180"/>
<pin name="PB5" x="22.86" y="15.24" length="middle" rot="R180"/>
<pin name="PB6" x="22.86" y="12.7" length="middle" rot="R180"/>
<pin name="PB7" x="22.86" y="10.16" length="middle" rot="R180"/>
<pin name="PB8" x="22.86" y="7.62" length="middle" rot="R180"/>
<pin name="PF0-OSC_IN" x="22.86" y="2.54" length="middle" rot="R180"/>
<pin name="PF1-OSC_OUT" x="22.86" y="0" length="middle" rot="R180"/>
<wire x1="-17.78" y1="33.02" x2="-17.78" y2="-40.64" width="0.4064" layer="94"/>
<wire x1="-17.78" y1="-40.64" x2="17.78" y2="-40.64" width="0.4064" layer="94"/>
<wire x1="17.78" y1="-40.64" x2="17.78" y2="33.02" width="0.4064" layer="94"/>
<wire x1="17.78" y1="33.02" x2="-17.78" y2="33.02" width="0.4064" layer="94"/>
<text x="-5.2578" y="35.2298" size="2.0828" layer="95" ratio="10" rot="SR0">&gt;NAME</text>
<text x="-7.2644" y="-43.815" size="2.0828" layer="96" ratio="10" rot="SR0">&gt;VALUE</text>
</symbol>
<symbol name="STM32L433KB">
<pin name="VDD_2" x="0" y="17.78" length="middle" direction="pwr"/>
<pin name="VDD" x="0" y="15.24" length="middle" direction="pwr"/>
<pin name="VDDA" x="0" y="12.7" length="middle" direction="pwr"/>
<pin name="BOOT0" x="45.72" y="17.78" length="middle" direction="in" rot="R180"/>
<pin name="NRST" x="45.72" y="12.7" length="middle" rot="R180"/>
<pin name="PA0" x="0" y="-2.54" length="middle"/>
<pin name="PA1" x="0" y="-5.08" length="middle"/>
<pin name="PA2" x="0" y="-7.62" length="middle"/>
<pin name="PA3" x="0" y="-10.16" length="middle"/>
<pin name="PA4" x="0" y="-12.7" length="middle"/>
<pin name="PA5" x="0" y="-15.24" length="middle"/>
<pin name="PA6" x="0" y="-17.78" length="middle"/>
<pin name="PA7" x="0" y="-20.32" length="middle"/>
<pin name="PA8" x="0" y="-22.86" length="middle"/>
<pin name="PA9" x="0" y="-25.4" length="middle"/>
<pin name="PA10" x="0" y="-27.94" length="middle"/>
<pin name="PA11" x="0" y="-30.48" length="middle"/>
<pin name="PA12" x="0" y="-33.02" length="middle"/>
<pin name="PA13" x="0" y="-35.56" length="middle"/>
<pin name="PA14" x="0" y="-38.1" length="middle"/>
<pin name="PA15" x="0" y="-40.64" length="middle"/>
<pin name="VSS/VSSA" x="0" y="-45.72" length="middle" direction="pas"/>
<pin name="PB0" x="45.72" y="-22.86" length="middle" rot="R180"/>
<pin name="PB1" x="45.72" y="-25.4" length="middle" rot="R180"/>
<pin name="VSS" x="0" y="7.62" length="middle" direction="pwr"/>
<pin name="PB3" x="45.72" y="-30.48" length="middle" rot="R180"/>
<pin name="PB4" x="45.72" y="-33.02" length="middle" rot="R180"/>
<pin name="PB5" x="45.72" y="-35.56" length="middle" rot="R180"/>
<pin name="PB6" x="45.72" y="-38.1" length="middle" rot="R180"/>
<pin name="PB7" x="45.72" y="-40.64" length="middle" rot="R180"/>
<pin name="VSS@1" x="0" y="5.08" length="middle" direction="pwr"/>
<pin name="PF0-OSC_IN" x="45.72" y="-2.54" length="middle" rot="R180"/>
<pin name="PF1-OSC_OUT" x="45.72" y="-7.62" length="middle" rot="R180"/>
<wire x1="5.08" y1="22.86" x2="5.08" y2="-50.8" width="0.4064" layer="94"/>
<wire x1="5.08" y1="-50.8" x2="40.64" y2="-50.8" width="0.4064" layer="94"/>
<wire x1="40.64" y1="-50.8" x2="40.64" y2="22.86" width="0.4064" layer="94"/>
<wire x1="40.64" y1="22.86" x2="5.08" y2="22.86" width="0.4064" layer="94"/>
<text x="17.6022" y="25.0698" size="2.0828" layer="95" ratio="10" rot="SR0">&gt;NAME</text>
<text x="15.5956" y="-53.975" size="2.0828" layer="96" ratio="10" rot="SR0">&gt;VALUE</text>
</symbol>
</symbols>
<devicesets>
<deviceset name="STM32F103C6T7A" prefix="U">
<description>IC, MCU, 32BIT, 32KB FLASH, 48 LQFP</description>
<gates>
<gate name="A" symbol="STM32F103C6T7A" x="0" y="0"/>
</gates>
<devices>
<device name="" package="QFP50P900X900X160-48N">
<connects>
<connect gate="A" pin="BOOT0" pad="44"/>
<connect gate="A" pin="NRST" pad="7"/>
<connect gate="A" pin="PA0-WKUP" pad="10"/>
<connect gate="A" pin="PA1" pad="11"/>
<connect gate="A" pin="PA10" pad="31"/>
<connect gate="A" pin="PA11" pad="32"/>
<connect gate="A" pin="PA12" pad="33"/>
<connect gate="A" pin="PA13" pad="34"/>
<connect gate="A" pin="PA14" pad="37"/>
<connect gate="A" pin="PA15" pad="38"/>
<connect gate="A" pin="PA2" pad="12"/>
<connect gate="A" pin="PA3" pad="13"/>
<connect gate="A" pin="PA4" pad="14"/>
<connect gate="A" pin="PA5" pad="15"/>
<connect gate="A" pin="PA6" pad="16"/>
<connect gate="A" pin="PA7" pad="17"/>
<connect gate="A" pin="PA8" pad="29"/>
<connect gate="A" pin="PA9" pad="30"/>
<connect gate="A" pin="PB0" pad="18"/>
<connect gate="A" pin="PB1" pad="19"/>
<connect gate="A" pin="PB10" pad="21"/>
<connect gate="A" pin="PB11" pad="22"/>
<connect gate="A" pin="PB12" pad="25"/>
<connect gate="A" pin="PB13" pad="26"/>
<connect gate="A" pin="PB14" pad="27"/>
<connect gate="A" pin="PB15" pad="28"/>
<connect gate="A" pin="PB2" pad="20"/>
<connect gate="A" pin="PB3" pad="39"/>
<connect gate="A" pin="PB4" pad="40"/>
<connect gate="A" pin="PB5" pad="41"/>
<connect gate="A" pin="PB6" pad="42"/>
<connect gate="A" pin="PB7" pad="43"/>
<connect gate="A" pin="PB8" pad="45"/>
<connect gate="A" pin="PB9" pad="46"/>
<connect gate="A" pin="PC13-TAMPER-RTC" pad="2"/>
<connect gate="A" pin="PC14-OSC32_IN" pad="3"/>
<connect gate="A" pin="PC15-OSC32_OUT" pad="4"/>
<connect gate="A" pin="PD0-OSC_IN" pad="5"/>
<connect gate="A" pin="PD1-OSC_OUT" pad="6"/>
<connect gate="A" pin="VBAT" pad="1"/>
<connect gate="A" pin="VDDA" pad="9"/>
<connect gate="A" pin="VDD_1" pad="24"/>
<connect gate="A" pin="VDD_2" pad="36"/>
<connect gate="A" pin="VDD_3" pad="48"/>
<connect gate="A" pin="VSSA" pad="8"/>
<connect gate="A" pin="VSS_1" pad="23"/>
<connect gate="A" pin="VSS_2" pad="35"/>
<connect gate="A" pin="VSS_3" pad="47"/>
</connects>
<technologies>
<technology name="">
<attribute name="MPN" value="STM32F103C6T7A" constant="no"/>
<attribute name="OC_FARNELL" value="2060890" constant="no"/>
<attribute name="OC_NEWARK" value="65T3773" constant="no"/>
<attribute name="PACKAGE" value="48LQFP" constant="no"/>
<attribute name="SUPPLIER" value="STMicroelectronics" constant="no"/>
</technology>
</technologies>
</device>
</devices>
</deviceset>
<deviceset name="STM32F103RET6" prefix="U">
<description>ARM-based 32-bit MCU</description>
<gates>
<gate name="A" symbol="STM32F103RET6" x="0" y="0"/>
</gates>
<devices>
<device name="" package="QFP50P1200X1200X160-64N">
<connects>
<connect gate="A" pin="BOOT0" pad="60"/>
<connect gate="A" pin="NRST" pad="7"/>
<connect gate="A" pin="PA0-WKUP" pad="14"/>
<connect gate="A" pin="PA1" pad="15"/>
<connect gate="A" pin="PA10" pad="43"/>
<connect gate="A" pin="PA11" pad="44"/>
<connect gate="A" pin="PA12" pad="45"/>
<connect gate="A" pin="PA13" pad="46"/>
<connect gate="A" pin="PA14" pad="49"/>
<connect gate="A" pin="PA15" pad="50"/>
<connect gate="A" pin="PA2" pad="16"/>
<connect gate="A" pin="PA3" pad="17"/>
<connect gate="A" pin="PA4" pad="20"/>
<connect gate="A" pin="PA5" pad="21"/>
<connect gate="A" pin="PA6" pad="22"/>
<connect gate="A" pin="PA7" pad="23"/>
<connect gate="A" pin="PA8" pad="41"/>
<connect gate="A" pin="PA9" pad="42"/>
<connect gate="A" pin="PB0" pad="26"/>
<connect gate="A" pin="PB1" pad="27"/>
<connect gate="A" pin="PB10" pad="29"/>
<connect gate="A" pin="PB11" pad="30"/>
<connect gate="A" pin="PB12" pad="33"/>
<connect gate="A" pin="PB13" pad="34"/>
<connect gate="A" pin="PB14" pad="35"/>
<connect gate="A" pin="PB15" pad="36"/>
<connect gate="A" pin="PB1_2" pad="28"/>
<connect gate="A" pin="PB3" pad="55"/>
<connect gate="A" pin="PB4" pad="56"/>
<connect gate="A" pin="PB5" pad="57"/>
<connect gate="A" pin="PB6" pad="58"/>
<connect gate="A" pin="PB7" pad="59"/>
<connect gate="A" pin="PB8" pad="61"/>
<connect gate="A" pin="PB9" pad="62"/>
<connect gate="A" pin="PC0" pad="8"/>
<connect gate="A" pin="PC1" pad="9"/>
<connect gate="A" pin="PC10" pad="51"/>
<connect gate="A" pin="PC11" pad="52"/>
<connect gate="A" pin="PC12" pad="53"/>
<connect gate="A" pin="PC13-TAMPER-RTC" pad="2"/>
<connect gate="A" pin="PC14-OSC32_IN" pad="3"/>
<connect gate="A" pin="PC15-OSC32_OUT" pad="4"/>
<connect gate="A" pin="PC2" pad="10"/>
<connect gate="A" pin="PC3" pad="11"/>
<connect gate="A" pin="PC4" pad="24"/>
<connect gate="A" pin="PC5" pad="25"/>
<connect gate="A" pin="PC6" pad="37"/>
<connect gate="A" pin="PC7" pad="38"/>
<connect gate="A" pin="PC8" pad="39"/>
<connect gate="A" pin="PC9" pad="40"/>
<connect gate="A" pin="PD0_OSC_IN" pad="5"/>
<connect gate="A" pin="PD1_OSC_OUT" pad="6"/>
<connect gate="A" pin="PD2" pad="54"/>
<connect gate="A" pin="VBAT" pad="1"/>
<connect gate="A" pin="VDDA" pad="13"/>
<connect gate="A" pin="VDD_1" pad="32"/>
<connect gate="A" pin="VDD_2" pad="48"/>
<connect gate="A" pin="VDD_3" pad="64"/>
<connect gate="A" pin="VDD_4" pad="19"/>
<connect gate="A" pin="VSSA" pad="12"/>
<connect gate="A" pin="VSS_1" pad="31"/>
<connect gate="A" pin="VSS_2" pad="47"/>
<connect gate="A" pin="VSS_3" pad="63"/>
<connect gate="A" pin="VSS_4" pad="18"/>
</connects>
<technologies>
<technology name="">
<attribute name="MPN" value="STM32F103RET6" constant="no"/>
<attribute name="OC_FARNELL" value="1624138" constant="no"/>
<attribute name="OC_NEWARK" value="01P4101" constant="no"/>
<attribute name="PACKAGE" value="QFP-64" constant="no"/>
<attribute name="SUPPLIER" value="STMICROELECTRONICS" constant="no"/>
</technology>
</technologies>
</device>
</devices>
</deviceset>
<deviceset name="STM32F050K6U6A" prefix="U">
<description>ARM-based 32-bit MCU,32UFQFN</description>
<gates>
<gate name="A" symbol="STM32F050K6U6A" x="0" y="0"/>
</gates>
<devices>
<device name="" package="QFN50P500X500X60-33N">
<connects>
<connect gate="A" pin="BOOT0" pad="31"/>
<connect gate="A" pin="NRST" pad="4"/>
<connect gate="A" pin="PA0" pad="6"/>
<connect gate="A" pin="PA1" pad="7"/>
<connect gate="A" pin="PA10" pad="20"/>
<connect gate="A" pin="PA11" pad="21"/>
<connect gate="A" pin="PA12" pad="22"/>
<connect gate="A" pin="PA13" pad="23"/>
<connect gate="A" pin="PA14" pad="24"/>
<connect gate="A" pin="PA15" pad="25"/>
<connect gate="A" pin="PA2" pad="8"/>
<connect gate="A" pin="PA3" pad="9"/>
<connect gate="A" pin="PA4" pad="10"/>
<connect gate="A" pin="PA5" pad="11"/>
<connect gate="A" pin="PA6" pad="12"/>
<connect gate="A" pin="PA7" pad="13"/>
<connect gate="A" pin="PA8" pad="18"/>
<connect gate="A" pin="PA9" pad="19"/>
<connect gate="A" pin="PB0" pad="14"/>
<connect gate="A" pin="PB1" pad="15"/>
<connect gate="A" pin="PB2" pad="16"/>
<connect gate="A" pin="PB3" pad="26"/>
<connect gate="A" pin="PB4" pad="27"/>
<connect gate="A" pin="PB5" pad="28"/>
<connect gate="A" pin="PB6" pad="29"/>
<connect gate="A" pin="PB7" pad="30"/>
<connect gate="A" pin="PB8" pad="32"/>
<connect gate="A" pin="PF0-OSC_IN" pad="2"/>
<connect gate="A" pin="PF1-OSC_OUT" pad="3"/>
<connect gate="A" pin="VDD" pad="17"/>
<connect gate="A" pin="VDDA" pad="5"/>
<connect gate="A" pin="VDD_2" pad="1"/>
<connect gate="A" pin="VSS/VSSA" pad="33"/>
</connects>
<technologies>
<technology name="">
<attribute name="MPN" value="STM32F050K6U6A" constant="no"/>
<attribute name="OC_FARNELL" value="2115061" constant="no"/>
<attribute name="OC_NEWARK" value="05W5799" constant="no"/>
<attribute name="PACKAGE" value="UFQFN-32" constant="no"/>
<attribute name="SUPPLIER" value="STMICROELECTRONICS" constant="no"/>
</technology>
</technologies>
</device>
</devices>
</deviceset>
<deviceset name="STM32L433KB">
<gates>
<gate name="A" symbol="STM32L433KB" x="-22.86" y="10.16"/>
</gates>
<devices>
<device name="" package="QFN50P500X500X60-33N">
<connects>
<connect gate="A" pin="BOOT0" pad="31"/>
<connect gate="A" pin="NRST" pad="4"/>
<connect gate="A" pin="PA0" pad="6"/>
<connect gate="A" pin="PA1" pad="7"/>
<connect gate="A" pin="PA10" pad="20"/>
<connect gate="A" pin="PA11" pad="21"/>
<connect gate="A" pin="PA12" pad="22"/>
<connect gate="A" pin="PA13" pad="23"/>
<connect gate="A" pin="PA14" pad="24"/>
<connect gate="A" pin="PA15" pad="25"/>
<connect gate="A" pin="PA2" pad="8"/>
<connect gate="A" pin="PA3" pad="9"/>
<connect gate="A" pin="PA4" pad="10"/>
<connect gate="A" pin="PA5" pad="11"/>
<connect gate="A" pin="PA6" pad="12"/>
<connect gate="A" pin="PA7" pad="13"/>
<connect gate="A" pin="PA8" pad="18"/>
<connect gate="A" pin="PA9" pad="19"/>
<connect gate="A" pin="PB0" pad="14"/>
<connect gate="A" pin="PB1" pad="15"/>
<connect gate="A" pin="PB3" pad="26"/>
<connect gate="A" pin="PB4" pad="27"/>
<connect gate="A" pin="PB5" pad="28"/>
<connect gate="A" pin="PB6" pad="29"/>
<connect gate="A" pin="PB7" pad="30"/>
<connect gate="A" pin="PF0-OSC_IN" pad="2"/>
<connect gate="A" pin="PF1-OSC_OUT" pad="3"/>
<connect gate="A" pin="VDD" pad="1"/>
<connect gate="A" pin="VDDA" pad="5"/>
<connect gate="A" pin="VDD_2" pad="17"/>
<connect gate="A" pin="VSS" pad="16"/>
<connect gate="A" pin="VSS/VSSA" pad="33"/>
<connect gate="A" pin="VSS@1" pad="32"/>
</connects>
<technologies>
<technology name=""/>
</technologies>
</device>
</devices>
</deviceset>
</devicesets>
</library>
</drawing>
</eagle>
